%YAML 1.1
%TAG !u! tag:unity3d.com,2011:
--- !u!114 &11400000
MonoBehaviour:
  m_ObjectHideFlags: 0
  m_CorrespondingSourceObject: {fileID: 0}
  m_PrefabInstance: {fileID: 0}
  m_PrefabAsset: {fileID: 0}
  m_GameObject: {fileID: 0}
  m_Enabled: 1
  m_EditorHideFlags: 0
  m_Script: {fileID: 11500000, guid: 5b994b18f61c9c3448a2bed150cb6499, type: 3}
  m_Name: Map03
  m_EditorClassIdentifier: 
  serializationData:
    SerializedFormat: 2
    SerializedBytes: 
    ReferencedUnityObjects: []
    SerializedBytesString: 
    Prefab: {fileID: 0}
    PrefabModificationsReferencedUnityObjects: []
    PrefabModifications: []
    SerializationNodes:
    - Name: map
      Entry: 7
      Data: 0|System.Collections.Generic.Dictionary`2[[UnityEngine.Vector3, UnityEngine.CoreModule],[MapInfo,
        Assembly-CSharp]], mscorlib
    - Name: comparer
      Entry: 7
      Data: 1|System.Collections.Generic.GenericEqualityComparer`1[[UnityEngine.Vector3,
        UnityEngine.CoreModule]], mscorlib
    - Name: 
      Entry: 8
      Data: 
    - Name: 
      Entry: 12
      Data: 195
    - Name: 
      Entry: 7
      Data: 
    - Name: 
      Entry: 7
      Data: UnityEngine.Vector3, UnityEngine.CoreModule
    - Name: 
      Entry: 4
      Data: -5.5
    - Name: 
      Entry: 4
      Data: 0
    - Name: 
      Entry: 4
      Data: 7.5
    - Name: 
      Entry: 8
      Data: 
    - Name: 
      Entry: 3
      Data: 3
    - Name: 
      Entry: 8
      Data: 
    - Name: 
      Entry: 7
      Data: 
    - Name: 
      Entry: 7
      Data: UnityEngine.Vector3, UnityEngine.CoreModule
    - Name: 
      Entry: 4
      Data: -5.5
    - Name: 
      Entry: 4
      Data: 0
    - Name: 
      Entry: 4
      Data: 6.5
    - Name: 
      Entry: 8
      Data: 
    - Name: 
      Entry: 3
      Data: 3
    - Name: 
      Entry: 8
      Data: 
    - Name: 
      Entry: 7
      Data: 
    - Name: 
      Entry: 7
      Data: UnityEngine.Vector3, UnityEngine.CoreModule
    - Name: 
      Entry: 4
      Data: -5.5
    - Name: 
      Entry: 4
      Data: 0
    - Name: 
      Entry: 4
      Data: 5.5
    - Name: 
      Entry: 8
      Data: 
    - Name: 
      Entry: 3
      Data: 3
    - Name: 
      Entry: 8
      Data: 
    - Name: 
      Entry: 7
      Data: 
    - Name: 
      Entry: 7
      Data: UnityEngine.Vector3, UnityEngine.CoreModule
    - Name: 
      Entry: 4
      Data: -5.5
    - Name: 
      Entry: 4
      Data: 0
    - Name: 
      Entry: 4
      Data: 4.5
    - Name: 
      Entry: 8
      Data: 
    - Name: 
      Entry: 3
      Data: 3
    - Name: 
      Entry: 8
      Data: 
    - Name: 
      Entry: 7
      Data: 
    - Name: 
      Entry: 7
      Data: UnityEngine.Vector3, UnityEngine.CoreModule
    - Name: 
      Entry: 4
      Data: -5.5
    - Name: 
      Entry: 4
      Data: 0
    - Name: 
      Entry: 4
      Data: 3.5
    - Name: 
      Entry: 8
      Data: 
    - Name: 
      Entry: 3
      Data: 3
    - Name: 
      Entry: 8
      Data: 
    - Name: 
      Entry: 7
      Data: 
    - Name: 
      Entry: 7
      Data: UnityEngine.Vector3, UnityEngine.CoreModule
    - Name: 
      Entry: 4
      Data: -5.5
    - Name: 
      Entry: 4
      Data: 0
    - Name: 
      Entry: 4
      Data: 2.5
    - Name: 
      Entry: 8
      Data: 
    - Name: 
      Entry: 3
      Data: 3
    - Name: 
      Entry: 8
      Data: 
    - Name: 
      Entry: 7
      Data: 
    - Name: 
      Entry: 7
      Data: UnityEngine.Vector3, UnityEngine.CoreModule
    - Name: 
      Entry: 4
      Data: -5.5
    - Name: 
      Entry: 4
      Data: 0
    - Name: 
      Entry: 4
      Data: 1.5
    - Name: 
      Entry: 8
      Data: 
    - Name: 
      Entry: 3
      Data: 3
    - Name: 
      Entry: 8
      Data: 
    - Name: 
      Entry: 7
      Data: 
    - Name: 
      Entry: 7
      Data: UnityEngine.Vector3, UnityEngine.CoreModule
    - Name: 
      Entry: 4
      Data: -5.5
    - Name: 
      Entry: 4
      Data: 0
    - Name: 
      Entry: 4
      Data: 0.5
    - Name: 
      Entry: 8
      Data: 
    - Name: 
      Entry: 3
      Data: 3
    - Name: 
      Entry: 8
      Data: 
    - Name: 
      Entry: 7
      Data: 
    - Name: 
      Entry: 7
      Data: UnityEngine.Vector3, UnityEngine.CoreModule
    - Name: 
      Entry: 4
      Data: -5.5
    - Name: 
      Entry: 4
      Data: 0
    - Name: 
      Entry: 4
      Data: -0.5
    - Name: 
      Entry: 8
      Data: 
    - Name: 
      Entry: 3
      Data: 3
    - Name: 
      Entry: 8
      Data: 
    - Name: 
      Entry: 7
      Data: 
    - Name: 
      Entry: 7
      Data: UnityEngine.Vector3, UnityEngine.CoreModule
    - Name: 
      Entry: 4
      Data: -5.5
    - Name: 
      Entry: 4
      Data: 0
    - Name: 
      Entry: 4
      Data: -1.5
    - Name: 
      Entry: 8
      Data: 
    - Name: 
      Entry: 3
      Data: 3
    - Name: 
      Entry: 8
      Data: 
    - Name: 
      Entry: 7
      Data: 
    - Name: 
      Entry: 7
      Data: UnityEngine.Vector3, UnityEngine.CoreModule
    - Name: 
      Entry: 4
      Data: -5.5
    - Name: 
      Entry: 4
      Data: 0
    - Name: 
      Entry: 4
      Data: -2.5
    - Name: 
      Entry: 8
      Data: 
    - Name: 
      Entry: 3
      Data: 3
    - Name: 
      Entry: 8
      Data: 
    - Name: 
      Entry: 7
      Data: 
    - Name: 
      Entry: 7
      Data: UnityEngine.Vector3, UnityEngine.CoreModule
    - Name: 
      Entry: 4
      Data: -5.5
    - Name: 
      Entry: 4
      Data: 0
    - Name: 
      Entry: 4
      Data: -3.5
    - Name: 
      Entry: 8
      Data: 
    - Name: 
      Entry: 3
      Data: 3
    - Name: 
      Entry: 8
      Data: 
    - Name: 
      Entry: 7
      Data: 
    - Name: 
      Entry: 7
      Data: UnityEngine.Vector3, UnityEngine.CoreModule
    - Name: 
      Entry: 4
      Data: -5.5
    - Name: 
      Entry: 4
      Data: 0
    - Name: 
      Entry: 4
      Data: -4.5
    - Name: 
      Entry: 8
      Data: 
    - Name: 
      Entry: 3
      Data: 3
    - Name: 
      Entry: 8
      Data: 
    - Name: 
      Entry: 7
      Data: 
    - Name: 
      Entry: 7
      Data: UnityEngine.Vector3, UnityEngine.CoreModule
    - Name: 
      Entry: 4
      Data: -4.5
    - Name: 
      Entry: 4
      Data: 0
    - Name: 
      Entry: 4
      Data: -3.5
    - Name: 
      Entry: 8
      Data: 
    - Name: 
      Entry: 3
      Data: 3
    - Name: 
      Entry: 8
      Data: 
    - Name: 
      Entry: 7
      Data: 
    - Name: 
      Entry: 7
      Data: UnityEngine.Vector3, UnityEngine.CoreModule
    - Name: 
      Entry: 4
      Data: -4.5
    - Name: 
      Entry: 4
      Data: 0
    - Name: 
      Entry: 4
      Data: -4.5
    - Name: 
      Entry: 8
      Data: 
    - Name: 
      Entry: 3
      Data: 3
    - Name: 
      Entry: 8
      Data: 
    - Name: 
      Entry: 7
      Data: 
    - Name: 
      Entry: 7
      Data: UnityEngine.Vector3, UnityEngine.CoreModule
    - Name: 
      Entry: 4
      Data: -4.5
    - Name: 
      Entry: 4
      Data: 0
    - Name: 
      Entry: 4
      Data: -5.5
    - Name: 
      Entry: 8
      Data: 
    - Name: 
      Entry: 3
      Data: 3
    - Name: 
      Entry: 8
      Data: 
    - Name: 
      Entry: 7
      Data: 
    - Name: 
      Entry: 7
      Data: UnityEngine.Vector3, UnityEngine.CoreModule
    - Name: 
      Entry: 4
      Data: -5.5
    - Name: 
      Entry: 4
      Data: 0
    - Name: 
      Entry: 4
      Data: -5.5
    - Name: 
      Entry: 8
      Data: 
    - Name: 
      Entry: 3
      Data: 3
    - Name: 
      Entry: 8
      Data: 
    - Name: 
      Entry: 7
      Data: 
    - Name: 
      Entry: 7
      Data: UnityEngine.Vector3, UnityEngine.CoreModule
    - Name: 
      Entry: 4
      Data: -5.5
    - Name: 
      Entry: 4
      Data: 0
    - Name: 
      Entry: 4
      Data: -6.5
    - Name: 
      Entry: 8
      Data: 
    - Name: 
      Entry: 3
      Data: 3
    - Name: 
      Entry: 8
      Data: 
    - Name: 
      Entry: 7
      Data: 
    - Name: 
      Entry: 7
      Data: UnityEngine.Vector3, UnityEngine.CoreModule
    - Name: 
      Entry: 4
      Data: -4.5
    - Name: 
      Entry: 4
      Data: 0
    - Name: 
      Entry: 4
      Data: -6.5
    - Name: 
      Entry: 8
      Data: 
    - Name: 
      Entry: 3
      Data: 3
    - Name: 
      Entry: 8
      Data: 
    - Name: 
      Entry: 7
      Data: 
    - Name: 
      Entry: 7
      Data: UnityEngine.Vector3, UnityEngine.CoreModule
    - Name: 
      Entry: 4
      Data: -3.5
    - Name: 
      Entry: 4
      Data: 0
    - Name: 
      Entry: 4
      Data: -5.5
    - Name: 
      Entry: 8
      Data: 
    - Name: 
      Entry: 3
      Data: 3
    - Name: 
      Entry: 8
      Data: 
    - Name: 
      Entry: 7
      Data: 
    - Name: 
      Entry: 7
      Data: UnityEngine.Vector3, UnityEngine.CoreModule
    - Name: 
      Entry: 4
      Data: -3.5
    - Name: 
      Entry: 4
      Data: 0
    - Name: 
      Entry: 4
      Data: -4.5
    - Name: 
      Entry: 8
      Data: 
    - Name: 
      Entry: 3
      Data: 3
    - Name: 
      Entry: 8
      Data: 
    - Name: 
      Entry: 7
      Data: 
    - Name: 
      Entry: 7
      Data: UnityEngine.Vector3, UnityEngine.CoreModule
    - Name: 
      Entry: 4
      Data: -4.5
    - Name: 
      Entry: 4
      Data: 0
    - Name: 
      Entry: 4
      Data: -2.5
    - Name: 
      Entry: 8
      Data: 
    - Name: 
      Entry: 3
      Data: 3
    - Name: 
      Entry: 8
      Data: 
    - Name: 
      Entry: 7
      Data: 
    - Name: 
      Entry: 7
      Data: UnityEngine.Vector3, UnityEngine.CoreModule
    - Name: 
      Entry: 4
      Data: -4.5
    - Name: 
      Entry: 4
      Data: 0
    - Name: 
      Entry: 4
      Data: -1.5
    - Name: 
      Entry: 8
      Data: 
    - Name: 
      Entry: 3
      Data: 3
    - Name: 
      Entry: 8
      Data: 
    - Name: 
      Entry: 7
      Data: 
    - Name: 
      Entry: 7
      Data: UnityEngine.Vector3, UnityEngine.CoreModule
    - Name: 
      Entry: 4
      Data: -4.5
    - Name: 
      Entry: 4
      Data: 0
    - Name: 
      Entry: 4
      Data: -0.5
    - Name: 
      Entry: 8
      Data: 
    - Name: 
      Entry: 3
      Data: 3
    - Name: 
      Entry: 8
      Data: 
    - Name: 
      Entry: 7
      Data: 
    - Name: 
      Entry: 7
      Data: UnityEngine.Vector3, UnityEngine.CoreModule
    - Name: 
      Entry: 4
      Data: -4.5
    - Name: 
      Entry: 4
      Data: 0
    - Name: 
      Entry: 4
      Data: 0.5
    - Name: 
      Entry: 8
      Data: 
    - Name: 
      Entry: 3
      Data: 3
    - Name: 
      Entry: 8
      Data: 
    - Name: 
      Entry: 7
      Data: 
    - Name: 
      Entry: 7
      Data: UnityEngine.Vector3, UnityEngine.CoreModule
    - Name: 
      Entry: 4
      Data: -4.5
    - Name: 
      Entry: 4
      Data: 0
    - Name: 
      Entry: 4
      Data: 1.5
    - Name: 
      Entry: 8
      Data: 
    - Name: 
      Entry: 3
      Data: 3
    - Name: 
      Entry: 8
      Data: 
    - Name: 
      Entry: 7
      Data: 
    - Name: 
      Entry: 7
      Data: UnityEngine.Vector3, UnityEngine.CoreModule
    - Name: 
      Entry: 4
      Data: -4.5
    - Name: 
      Entry: 4
      Data: 0
    - Name: 
      Entry: 4
      Data: 2.5
    - Name: 
      Entry: 8
      Data: 
    - Name: 
      Entry: 3
      Data: 3
    - Name: 
      Entry: 8
      Data: 
    - Name: 
      Entry: 7
      Data: 
    - Name: 
      Entry: 7
      Data: UnityEngine.Vector3, UnityEngine.CoreModule
    - Name: 
      Entry: 4
      Data: -4.5
    - Name: 
      Entry: 4
      Data: 0
    - Name: 
      Entry: 4
      Data: 3.5
    - Name: 
      Entry: 8
      Data: 
    - Name: 
      Entry: 3
      Data: 3
    - Name: 
      Entry: 8
      Data: 
    - Name: 
      Entry: 7
      Data: 
    - Name: 
      Entry: 7
      Data: UnityEngine.Vector3, UnityEngine.CoreModule
    - Name: 
      Entry: 4
      Data: -4.5
    - Name: 
      Entry: 4
      Data: 0
    - Name: 
      Entry: 4
      Data: 4.5
    - Name: 
      Entry: 8
      Data: 
    - Name: 
      Entry: 3
      Data: 3
    - Name: 
      Entry: 8
      Data: 
    - Name: 
      Entry: 7
      Data: 
    - Name: 
      Entry: 7
      Data: UnityEngine.Vector3, UnityEngine.CoreModule
    - Name: 
      Entry: 4
      Data: -4.5
    - Name: 
      Entry: 4
      Data: 0
    - Name: 
      Entry: 4
      Data: 5.5
    - Name: 
      Entry: 8
      Data: 
    - Name: 
      Entry: 3
      Data: 3
    - Name: 
      Entry: 8
      Data: 
    - Name: 
      Entry: 7
      Data: 
    - Name: 
      Entry: 7
      Data: UnityEngine.Vector3, UnityEngine.CoreModule
    - Name: 
      Entry: 4
      Data: -4.5
    - Name: 
      Entry: 4
      Data: 0
    - Name: 
      Entry: 4
      Data: 6.5
    - Name: 
      Entry: 8
      Data: 
    - Name: 
      Entry: 3
      Data: 3
    - Name: 
      Entry: 8
      Data: 
    - Name: 
      Entry: 7
      Data: 
    - Name: 
      Entry: 7
      Data: UnityEngine.Vector3, UnityEngine.CoreModule
    - Name: 
      Entry: 4
      Data: -4.5
    - Name: 
      Entry: 4
      Data: 0
    - Name: 
      Entry: 4
      Data: 7.5
    - Name: 
      Entry: 8
      Data: 
    - Name: 
      Entry: 3
      Data: 3
    - Name: 
      Entry: 8
      Data: 
    - Name: 
      Entry: 7
      Data: 
    - Name: 
      Entry: 7
      Data: UnityEngine.Vector3, UnityEngine.CoreModule
    - Name: 
      Entry: 4
      Data: -3.5
    - Name: 
      Entry: 4
      Data: 0
    - Name: 
      Entry: 4
      Data: 7.5
    - Name: 
      Entry: 8
      Data: 
    - Name: 
      Entry: 3
      Data: 3
    - Name: 
      Entry: 8
      Data: 
    - Name: 
      Entry: 7
      Data: 
    - Name: 
      Entry: 7
      Data: UnityEngine.Vector3, UnityEngine.CoreModule
    - Name: 
      Entry: 4
      Data: -3.5
    - Name: 
      Entry: 4
      Data: 0
    - Name: 
      Entry: 4
      Data: 6.5
    - Name: 
      Entry: 8
      Data: 
    - Name: 
      Entry: 3
      Data: 3
    - Name: 
      Entry: 8
      Data: 
    - Name: 
      Entry: 7
      Data: 
    - Name: 
      Entry: 7
      Data: UnityEngine.Vector3, UnityEngine.CoreModule
    - Name: 
      Entry: 4
      Data: -3.5
    - Name: 
      Entry: 4
      Data: 0
    - Name: 
      Entry: 4
      Data: 5.5
    - Name: 
      Entry: 8
      Data: 
    - Name: 
      Entry: 3
      Data: 3
    - Name: 
      Entry: 8
      Data: 
    - Name: 
      Entry: 7
      Data: 
    - Name: 
      Entry: 7
      Data: UnityEngine.Vector3, UnityEngine.CoreModule
    - Name: 
      Entry: 4
      Data: -2.5
    - Name: 
      Entry: 4
      Data: 0
    - Name: 
      Entry: 4
      Data: 0.5
    - Name: 
      Entry: 8
      Data: 
    - Name: 
      Entry: 3
      Data: 3
    - Name: 
      Entry: 8
      Data: 
    - Name: 
      Entry: 7
      Data: 
    - Name: 
      Entry: 7
      Data: UnityEngine.Vector3, UnityEngine.CoreModule
    - Name: 
      Entry: 4
      Data: -2.5
    - Name: 
      Entry: 4
      Data: 0
    - Name: 
      Entry: 4
      Data: -0.5
    - Name: 
      Entry: 8
      Data: 
    - Name: 
      Entry: 3
      Data: 3
    - Name: 
      Entry: 8
      Data: 
    - Name: 
      Entry: 7
      Data: 
    - Name: 
      Entry: 7
      Data: UnityEngine.Vector3, UnityEngine.CoreModule
    - Name: 
      Entry: 4
      Data: -2.5
    - Name: 
      Entry: 4
      Data: 0
    - Name: 
      Entry: 4
      Data: -1.5
    - Name: 
      Entry: 8
      Data: 
    - Name: 
      Entry: 3
      Data: 3
    - Name: 
      Entry: 8
      Data: 
    - Name: 
      Entry: 7
      Data: 
    - Name: 
      Entry: 7
      Data: UnityEngine.Vector3, UnityEngine.CoreModule
    - Name: 
      Entry: 4
      Data: -2.5
    - Name: 
      Entry: 4
      Data: 0
    - Name: 
      Entry: 4
      Data: -2.5
    - Name: 
      Entry: 8
      Data: 
    - Name: 
      Entry: 3
      Data: 3
    - Name: 
      Entry: 8
      Data: 
    - Name: 
      Entry: 7
      Data: 
    - Name: 
      Entry: 7
      Data: UnityEngine.Vector3, UnityEngine.CoreModule
    - Name: 
      Entry: 4
      Data: -2.5
    - Name: 
      Entry: 4
      Data: 0
    - Name: 
      Entry: 4
      Data: -3.5
    - Name: 
      Entry: 8
      Data: 
    - Name: 
      Entry: 3
      Data: 3
    - Name: 
      Entry: 8
      Data: 
    - Name: 
      Entry: 7
      Data: 
    - Name: 
      Entry: 7
      Data: UnityEngine.Vector3, UnityEngine.CoreModule
    - Name: 
      Entry: 4
      Data: -3.5
    - Name: 
      Entry: 4
      Data: 0
    - Name: 
      Entry: 4
      Data: -2.5
    - Name: 
      Entry: 8
      Data: 
    - Name: 
      Entry: 3
      Data: 3
    - Name: 
      Entry: 8
      Data: 
    - Name: 
      Entry: 7
      Data: 
    - Name: 
      Entry: 7
      Data: UnityEngine.Vector3, UnityEngine.CoreModule
    - Name: 
      Entry: 4
      Data: -3.5
    - Name: 
      Entry: 4
      Data: 0
    - Name: 
      Entry: 4
      Data: -1.5
    - Name: 
      Entry: 8
      Data: 
    - Name: 
      Entry: 3
      Data: 3
    - Name: 
      Entry: 8
      Data: 
    - Name: 
      Entry: 7
      Data: 
    - Name: 
      Entry: 7
      Data: UnityEngine.Vector3, UnityEngine.CoreModule
    - Name: 
      Entry: 4
      Data: -3.5
    - Name: 
      Entry: 4
      Data: 0
    - Name: 
      Entry: 4
      Data: -0.5
    - Name: 
      Entry: 8
      Data: 
    - Name: 
      Entry: 3
      Data: 3
    - Name: 
      Entry: 8
      Data: 
    - Name: 
      Entry: 7
      Data: 
    - Name: 
      Entry: 7
      Data: UnityEngine.Vector3, UnityEngine.CoreModule
    - Name: 
      Entry: 4
      Data: -3.5
    - Name: 
      Entry: 4
      Data: 0
    - Name: 
      Entry: 4
      Data: -6.5
    - Name: 
      Entry: 8
      Data: 
    - Name: 
      Entry: 3
      Data: 3
    - Name: 
      Entry: 8
      Data: 
    - Name: 
      Entry: 7
      Data: 
    - Name: 
      Entry: 7
      Data: UnityEngine.Vector3, UnityEngine.CoreModule
    - Name: 
      Entry: 4
      Data: -2.5
    - Name: 
      Entry: 4
      Data: 0
    - Name: 
      Entry: 4
      Data: -5.5
    - Name: 
      Entry: 8
      Data: 
    - Name: 
      Entry: 3
      Data: 3
    - Name: 
      Entry: 8
      Data: 
    - Name: 
      Entry: 7
      Data: 
    - Name: 
      Entry: 7
      Data: UnityEngine.Vector3, UnityEngine.CoreModule
    - Name: 
      Entry: 4
      Data: -2.5
    - Name: 
      Entry: 4
      Data: 0
    - Name: 
      Entry: 4
      Data: -6.5
    - Name: 
      Entry: 8
      Data: 
    - Name: 
      Entry: 3
      Data: 3
    - Name: 
      Entry: 8
      Data: 
    - Name: 
      Entry: 7
      Data: 
    - Name: 
      Entry: 7
      Data: UnityEngine.Vector3, UnityEngine.CoreModule
    - Name: 
      Entry: 4
      Data: -1.5
    - Name: 
      Entry: 4
      Data: 0
    - Name: 
      Entry: 4
      Data: -6.5
    - Name: 
      Entry: 8
      Data: 
    - Name: 
      Entry: 3
      Data: 3
    - Name: 
      Entry: 8
      Data: 
    - Name: 
      Entry: 7
      Data: 
    - Name: 
      Entry: 7
      Data: UnityEngine.Vector3, UnityEngine.CoreModule
    - Name: 
      Entry: 4
      Data: -1.5
    - Name: 
      Entry: 4
      Data: 0
    - Name: 
      Entry: 4
      Data: -5.5
    - Name: 
      Entry: 8
      Data: 
    - Name: 
      Entry: 3
      Data: 3
    - Name: 
      Entry: 8
      Data: 
    - Name: 
      Entry: 7
      Data: 
    - Name: 
      Entry: 7
      Data: UnityEngine.Vector3, UnityEngine.CoreModule
    - Name: 
      Entry: 4
      Data: -1.5
    - Name: 
      Entry: 4
      Data: 0
    - Name: 
      Entry: 4
      Data: -3.5
    - Name: 
      Entry: 8
      Data: 
    - Name: 
      Entry: 3
      Data: 3
    - Name: 
      Entry: 8
      Data: 
    - Name: 
      Entry: 7
      Data: 
    - Name: 
      Entry: 7
      Data: UnityEngine.Vector3, UnityEngine.CoreModule
    - Name: 
      Entry: 4
      Data: -1.5
    - Name: 
      Entry: 4
      Data: 0
    - Name: 
      Entry: 4
      Data: -2.5
    - Name: 
      Entry: 8
      Data: 
    - Name: 
      Entry: 3
      Data: 3
    - Name: 
      Entry: 8
      Data: 
    - Name: 
      Entry: 7
      Data: 
    - Name: 
      Entry: 7
      Data: UnityEngine.Vector3, UnityEngine.CoreModule
    - Name: 
      Entry: 4
      Data: -1.5
    - Name: 
      Entry: 4
      Data: 0
    - Name: 
      Entry: 4
      Data: -1.5
    - Name: 
      Entry: 8
      Data: 
    - Name: 
      Entry: 3
      Data: 3
    - Name: 
      Entry: 8
      Data: 
    - Name: 
      Entry: 7
      Data: 
    - Name: 
      Entry: 7
      Data: UnityEngine.Vector3, UnityEngine.CoreModule
    - Name: 
      Entry: 4
      Data: -1.5
    - Name: 
      Entry: 4
      Data: 0
    - Name: 
      Entry: 4
      Data: -0.5
    - Name: 
      Entry: 8
      Data: 
    - Name: 
      Entry: 3
      Data: 3
    - Name: 
      Entry: 8
      Data: 
    - Name: 
      Entry: 7
      Data: 
    - Name: 
      Entry: 7
      Data: UnityEngine.Vector3, UnityEngine.CoreModule
    - Name: 
      Entry: 4
      Data: -1.5
    - Name: 
      Entry: 4
      Data: 0
    - Name: 
      Entry: 4
      Data: 5.5
    - Name: 
      Entry: 8
      Data: 
    - Name: 
      Entry: 3
      Data: 3
    - Name: 
      Entry: 8
      Data: 
    - Name: 
      Entry: 7
      Data: 
    - Name: 
      Entry: 7
      Data: UnityEngine.Vector3, UnityEngine.CoreModule
    - Name: 
      Entry: 4
      Data: -1.5
    - Name: 
      Entry: 4
      Data: 0
    - Name: 
      Entry: 4
      Data: 6.5
    - Name: 
      Entry: 8
      Data: 
    - Name: 
      Entry: 3
      Data: 3
    - Name: 
      Entry: 8
      Data: 
    - Name: 
      Entry: 7
      Data: 
    - Name: 
      Entry: 7
      Data: UnityEngine.Vector3, UnityEngine.CoreModule
    - Name: 
      Entry: 4
      Data: -2.5
    - Name: 
      Entry: 4
      Data: 0
    - Name: 
      Entry: 4
      Data: 7.5
    - Name: 
      Entry: 8
      Data: 
    - Name: 
      Entry: 3
      Data: 3
    - Name: 
      Entry: 8
      Data: 
    - Name: 
      Entry: 7
      Data: 
    - Name: 
      Entry: 7
      Data: UnityEngine.Vector3, UnityEngine.CoreModule
    - Name: 
      Entry: 4
      Data: -2.5
    - Name: 
      Entry: 4
      Data: 0
    - Name: 
      Entry: 4
      Data: 6.5
    - Name: 
      Entry: 8
      Data: 
    - Name: 
      Entry: 3
      Data: 3
    - Name: 
      Entry: 8
      Data: 
    - Name: 
      Entry: 7
      Data: 
    - Name: 
      Entry: 7
      Data: UnityEngine.Vector3, UnityEngine.CoreModule
    - Name: 
      Entry: 4
      Data: -2.5
    - Name: 
      Entry: 4
      Data: 0
    - Name: 
      Entry: 4
      Data: 5.5
    - Name: 
      Entry: 8
      Data: 
    - Name: 
      Entry: 3
      Data: 3
    - Name: 
      Entry: 8
      Data: 
    - Name: 
      Entry: 7
      Data: 
    - Name: 
      Entry: 7
      Data: UnityEngine.Vector3, UnityEngine.CoreModule
    - Name: 
      Entry: 4
      Data: -2.5
    - Name: 
      Entry: 4
      Data: 0
    - Name: 
      Entry: 4
      Data: 3.5
    - Name: 
      Entry: 8
      Data: 
    - Name: 
      Entry: 3
      Data: 3
    - Name: 
      Entry: 8
      Data: 
    - Name: 
      Entry: 7
      Data: 
    - Name: 
      Entry: 7
      Data: UnityEngine.Vector3, UnityEngine.CoreModule
    - Name: 
      Entry: 4
      Data: -2.5
    - Name: 
      Entry: 4
      Data: 0
    - Name: 
      Entry: 4
      Data: 2.5
    - Name: 
      Entry: 8
      Data: 
    - Name: 
      Entry: 3
      Data: 3
    - Name: 
      Entry: 8
      Data: 
    - Name: 
      Entry: 7
      Data: 
    - Name: 
      Entry: 7
      Data: UnityEngine.Vector3, UnityEngine.CoreModule
    - Name: 
      Entry: 4
      Data: -2.5
    - Name: 
      Entry: 4
      Data: 0
    - Name: 
      Entry: 4
      Data: 1.5
    - Name: 
      Entry: 8
      Data: 
    - Name: 
      Entry: 3
      Data: 3
    - Name: 
      Entry: 8
      Data: 
    - Name: 
      Entry: 7
      Data: 
    - Name: 
      Entry: 7
      Data: UnityEngine.Vector3, UnityEngine.CoreModule
    - Name: 
      Entry: 4
      Data: -1.5
    - Name: 
      Entry: 4
      Data: 0
    - Name: 
      Entry: 4
      Data: 7.5
    - Name: 
      Entry: 8
      Data: 
    - Name: 
      Entry: 3
      Data: 3
    - Name: 
      Entry: 8
      Data: 
    - Name: 
      Entry: 7
      Data: 
    - Name: 
      Entry: 7
      Data: UnityEngine.Vector3, UnityEngine.CoreModule
    - Name: 
      Entry: 4
      Data: -0.5
    - Name: 
      Entry: 4
      Data: 0
    - Name: 
      Entry: 4
      Data: 7.5
    - Name: 
      Entry: 8
      Data: 
    - Name: 
      Entry: 3
      Data: 3
    - Name: 
      Entry: 8
      Data: 
    - Name: 
      Entry: 7
      Data: 
    - Name: 
      Entry: 7
      Data: UnityEngine.Vector3, UnityEngine.CoreModule
    - Name: 
      Entry: 4
      Data: -0.5
    - Name: 
      Entry: 4
      Data: 0
    - Name: 
      Entry: 4
      Data: 6.5
    - Name: 
      Entry: 8
      Data: 
    - Name: 
      Entry: 3
      Data: 3
    - Name: 
      Entry: 8
      Data: 
    - Name: 
      Entry: 7
      Data: 
    - Name: 
      Entry: 7
      Data: UnityEngine.Vector3, UnityEngine.CoreModule
    - Name: 
      Entry: 4
      Data: -0.5
    - Name: 
      Entry: 4
      Data: 0
    - Name: 
      Entry: 4
      Data: 5.5
    - Name: 
      Entry: 8
      Data: 
    - Name: 
      Entry: 3
      Data: 3
    - Name: 
      Entry: 8
      Data: 
    - Name: 
      Entry: 7
      Data: 
    - Name: 
      Entry: 7
      Data: UnityEngine.Vector3, UnityEngine.CoreModule
    - Name: 
      Entry: 4
      Data: -0.5
    - Name: 
      Entry: 4
      Data: 0
    - Name: 
      Entry: 4
      Data: 4.5
    - Name: 
      Entry: 8
      Data: 
    - Name: 
      Entry: 3
      Data: 3
    - Name: 
      Entry: 8
      Data: 
    - Name: 
      Entry: 7
      Data: 
    - Name: 
      Entry: 7
      Data: UnityEngine.Vector3, UnityEngine.CoreModule
    - Name: 
      Entry: 4
      Data: -0.5
    - Name: 
      Entry: 4
      Data: 0
    - Name: 
      Entry: 4
      Data: 3.5
    - Name: 
      Entry: 8
      Data: 
    - Name: 
      Entry: 3
      Data: 3
    - Name: 
      Entry: 8
      Data: 
    - Name: 
      Entry: 7
      Data: 
    - Name: 
      Entry: 7
      Data: UnityEngine.Vector3, UnityEngine.CoreModule
    - Name: 
      Entry: 4
      Data: -0.5
    - Name: 
      Entry: 4
      Data: 0
    - Name: 
      Entry: 4
      Data: 2.5
    - Name: 
      Entry: 8
      Data: 
    - Name: 
      Entry: 3
      Data: 3
    - Name: 
      Entry: 8
      Data: 
    - Name: 
      Entry: 7
      Data: 
    - Name: 
      Entry: 7
      Data: UnityEngine.Vector3, UnityEngine.CoreModule
    - Name: 
      Entry: 4
      Data: -0.5
    - Name: 
      Entry: 4
      Data: 0
    - Name: 
      Entry: 4
      Data: 1.5
    - Name: 
      Entry: 8
      Data: 
    - Name: 
      Entry: 3
      Data: 3
    - Name: 
      Entry: 8
      Data: 
    - Name: 
      Entry: 7
      Data: 
    - Name: 
      Entry: 7
      Data: UnityEngine.Vector3, UnityEngine.CoreModule
    - Name: 
      Entry: 4
      Data: -0.5
    - Name: 
      Entry: 4
      Data: 0
    - Name: 
      Entry: 4
      Data: 0.5
    - Name: 
      Entry: 8
      Data: 
    - Name: 
      Entry: 3
      Data: 3
    - Name: 
      Entry: 8
      Data: 
    - Name: 
      Entry: 7
      Data: 
    - Name: 
      Entry: 7
      Data: UnityEngine.Vector3, UnityEngine.CoreModule
    - Name: 
      Entry: 4
      Data: -0.5
    - Name: 
      Entry: 4
      Data: 0
    - Name: 
      Entry: 4
      Data: -0.5
    - Name: 
      Entry: 8
      Data: 
    - Name: 
      Entry: 3
      Data: 3
    - Name: 
      Entry: 8
      Data: 
    - Name: 
      Entry: 7
      Data: 
    - Name: 
      Entry: 7
      Data: UnityEngine.Vector3, UnityEngine.CoreModule
    - Name: 
      Entry: 4
      Data: -0.5
    - Name: 
      Entry: 4
      Data: 0
    - Name: 
      Entry: 4
      Data: -1.5
    - Name: 
      Entry: 8
      Data: 
    - Name: 
      Entry: 3
      Data: 3
    - Name: 
      Entry: 8
      Data: 
    - Name: 
      Entry: 7
      Data: 
    - Name: 
      Entry: 7
      Data: UnityEngine.Vector3, UnityEngine.CoreModule
    - Name: 
      Entry: 4
      Data: -0.5
    - Name: 
      Entry: 4
      Data: 0
    - Name: 
      Entry: 4
      Data: -2.5
    - Name: 
      Entry: 8
      Data: 
    - Name: 
      Entry: 3
      Data: 3
    - Name: 
      Entry: 8
      Data: 
    - Name: 
      Entry: 7
      Data: 
    - Name: 
      Entry: 7
      Data: UnityEngine.Vector3, UnityEngine.CoreModule
    - Name: 
      Entry: 4
      Data: -0.5
    - Name: 
      Entry: 4
      Data: 0
    - Name: 
      Entry: 4
      Data: -3.5
    - Name: 
      Entry: 8
      Data: 
    - Name: 
      Entry: 3
      Data: 3
    - Name: 
      Entry: 8
      Data: 
    - Name: 
      Entry: 7
      Data: 
    - Name: 
      Entry: 7
      Data: UnityEngine.Vector3, UnityEngine.CoreModule
    - Name: 
      Entry: 4
      Data: 0.5
    - Name: 
      Entry: 4
      Data: 0
    - Name: 
      Entry: 4
      Data: -5.5
    - Name: 
      Entry: 8
      Data: 
    - Name: 
      Entry: 3
      Data: 3
    - Name: 
      Entry: 8
      Data: 
    - Name: 
      Entry: 7
      Data: 
    - Name: 
      Entry: 7
      Data: UnityEngine.Vector3, UnityEngine.CoreModule
    - Name: 
      Entry: 4
      Data: -0.5
    - Name: 
      Entry: 4
      Data: 0
    - Name: 
      Entry: 4
      Data: -5.5
    - Name: 
      Entry: 8
      Data: 
    - Name: 
      Entry: 3
      Data: 3
    - Name: 
      Entry: 8
      Data: 
    - Name: 
      Entry: 7
      Data: 
    - Name: 
      Entry: 7
      Data: UnityEngine.Vector3, UnityEngine.CoreModule
    - Name: 
      Entry: 4
      Data: -0.5
    - Name: 
      Entry: 4
      Data: 0
    - Name: 
      Entry: 4
      Data: -6.5
    - Name: 
      Entry: 8
      Data: 
    - Name: 
      Entry: 3
      Data: 3
    - Name: 
      Entry: 8
      Data: 
    - Name: 
      Entry: 7
      Data: 
    - Name: 
      Entry: 7
      Data: UnityEngine.Vector3, UnityEngine.CoreModule
    - Name: 
      Entry: 4
      Data: 0.5
    - Name: 
      Entry: 4
      Data: 0
    - Name: 
      Entry: 4
      Data: -6.5
    - Name: 
      Entry: 8
      Data: 
    - Name: 
      Entry: 3
      Data: 3
    - Name: 
      Entry: 8
      Data: 
    - Name: 
      Entry: 7
      Data: 
    - Name: 
      Entry: 7
      Data: UnityEngine.Vector3, UnityEngine.CoreModule
    - Name: 
      Entry: 4
      Data: 0.5
    - Name: 
      Entry: 4
      Data: 0
    - Name: 
      Entry: 4
      Data: -3.5
    - Name: 
      Entry: 8
      Data: 
    - Name: 
      Entry: 3
      Data: 3
    - Name: 
      Entry: 8
      Data: 
    - Name: 
      Entry: 7
      Data: 
    - Name: 
      Entry: 7
      Data: UnityEngine.Vector3, UnityEngine.CoreModule
    - Name: 
      Entry: 4
      Data: 0.5
    - Name: 
      Entry: 4
      Data: 0
    - Name: 
      Entry: 4
      Data: -2.5
    - Name: 
      Entry: 8
      Data: 
    - Name: 
      Entry: 3
      Data: 3
    - Name: 
      Entry: 8
      Data: 
    - Name: 
      Entry: 7
      Data: 
    - Name: 
      Entry: 7
      Data: UnityEngine.Vector3, UnityEngine.CoreModule
    - Name: 
      Entry: 4
      Data: 0.5
    - Name: 
      Entry: 4
      Data: 0
    - Name: 
      Entry: 4
      Data: -1.5
    - Name: 
      Entry: 8
      Data: 
    - Name: 
      Entry: 3
      Data: 3
    - Name: 
      Entry: 8
      Data: 
    - Name: 
      Entry: 7
      Data: 
    - Name: 
      Entry: 7
      Data: UnityEngine.Vector3, UnityEngine.CoreModule
    - Name: 
      Entry: 4
      Data: 0.5
    - Name: 
      Entry: 4
      Data: 0
    - Name: 
      Entry: 4
      Data: -0.5
    - Name: 
      Entry: 8
      Data: 
    - Name: 
      Entry: 3
      Data: 3
    - Name: 
      Entry: 8
      Data: 
    - Name: 
      Entry: 7
      Data: 
    - Name: 
      Entry: 7
      Data: UnityEngine.Vector3, UnityEngine.CoreModule
    - Name: 
      Entry: 4
      Data: 0.5
    - Name: 
      Entry: 4
      Data: 0
    - Name: 
      Entry: 4
      Data: 0.5
    - Name: 
      Entry: 8
      Data: 
    - Name: 
      Entry: 3
      Data: 3
    - Name: 
      Entry: 8
      Data: 
    - Name: 
      Entry: 7
      Data: 
    - Name: 
      Entry: 7
      Data: UnityEngine.Vector3, UnityEngine.CoreModule
    - Name: 
      Entry: 4
      Data: 0.5
    - Name: 
      Entry: 4
      Data: 0
    - Name: 
      Entry: 4
      Data: 1.5
    - Name: 
      Entry: 8
      Data: 
    - Name: 
      Entry: 3
      Data: 3
    - Name: 
      Entry: 8
      Data: 
    - Name: 
      Entry: 7
      Data: 
    - Name: 
      Entry: 7
      Data: UnityEngine.Vector3, UnityEngine.CoreModule
    - Name: 
      Entry: 4
      Data: 0.5
    - Name: 
      Entry: 4
      Data: 0
    - Name: 
      Entry: 4
      Data: 6.5
    - Name: 
      Entry: 8
      Data: 
    - Name: 
      Entry: 3
      Data: 3
    - Name: 
      Entry: 8
      Data: 
    - Name: 
      Entry: 7
      Data: 
    - Name: 
      Entry: 7
      Data: UnityEngine.Vector3, UnityEngine.CoreModule
    - Name: 
      Entry: 4
      Data: 0.5
    - Name: 
      Entry: 4
      Data: 0
    - Name: 
      Entry: 4
      Data: 7.5
    - Name: 
      Entry: 8
      Data: 
    - Name: 
      Entry: 3
      Data: 3
    - Name: 
      Entry: 8
      Data: 
    - Name: 
      Entry: 7
      Data: 
    - Name: 
      Entry: 7
      Data: UnityEngine.Vector3, UnityEngine.CoreModule
    - Name: 
      Entry: 4
      Data: 0.5
    - Name: 
      Entry: 4
      Data: 0
    - Name: 
      Entry: 4
      Data: 5.5
    - Name: 
      Entry: 8
      Data: 
    - Name: 
      Entry: 3
      Data: 3
    - Name: 
      Entry: 8
      Data: 
    - Name: 
      Entry: 7
      Data: 
    - Name: 
      Entry: 7
      Data: UnityEngine.Vector3, UnityEngine.CoreModule
    - Name: 
      Entry: 4
      Data: 0.5
    - Name: 
      Entry: 4
      Data: 0
    - Name: 
      Entry: 4
      Data: 4.5
    - Name: 
      Entry: 8
      Data: 
    - Name: 
      Entry: 3
      Data: 3
    - Name: 
      Entry: 8
      Data: 
    - Name: 
      Entry: 7
      Data: 
    - Name: 
      Entry: 7
      Data: UnityEngine.Vector3, UnityEngine.CoreModule
    - Name: 
      Entry: 4
      Data: 0.5
    - Name: 
      Entry: 4
      Data: 0
    - Name: 
      Entry: 4
      Data: 3.5
    - Name: 
      Entry: 8
      Data: 
    - Name: 
      Entry: 3
      Data: 3
    - Name: 
      Entry: 8
      Data: 
    - Name: 
      Entry: 7
      Data: 
    - Name: 
      Entry: 7
      Data: UnityEngine.Vector3, UnityEngine.CoreModule
    - Name: 
      Entry: 4
      Data: 0.5
    - Name: 
      Entry: 4
      Data: 0
    - Name: 
      Entry: 4
      Data: 2.5
    - Name: 
      Entry: 8
      Data: 
    - Name: 
      Entry: 3
      Data: 3
    - Name: 
      Entry: 8
      Data: 
    - Name: 
      Entry: 7
      Data: 
    - Name: 
      Entry: 7
      Data: UnityEngine.Vector3, UnityEngine.CoreModule
    - Name: 
      Entry: 4
      Data: 1.5
    - Name: 
      Entry: 4
      Data: 0
    - Name: 
      Entry: 4
      Data: 7.5
    - Name: 
      Entry: 8
      Data: 
    - Name: 
      Entry: 3
      Data: 3
    - Name: 
      Entry: 8
      Data: 
    - Name: 
      Entry: 7
      Data: 
    - Name: 
      Entry: 7
      Data: UnityEngine.Vector3, UnityEngine.CoreModule
    - Name: 
      Entry: 4
      Data: 1.5
    - Name: 
      Entry: 4
      Data: 0
    - Name: 
      Entry: 4
      Data: 6.5
    - Name: 
      Entry: 8
      Data: 
    - Name: 
      Entry: 3
      Data: 3
    - Name: 
      Entry: 8
      Data: 
    - Name: 
      Entry: 7
      Data: 
    - Name: 
      Entry: 7
      Data: UnityEngine.Vector3, UnityEngine.CoreModule
    - Name: 
      Entry: 4
      Data: 1.5
    - Name: 
      Entry: 4
      Data: 0
    - Name: 
      Entry: 4
      Data: 5.5
    - Name: 
      Entry: 8
      Data: 
    - Name: 
      Entry: 3
      Data: 3
    - Name: 
      Entry: 8
      Data: 
    - Name: 
      Entry: 7
      Data: 
    - Name: 
      Entry: 7
      Data: UnityEngine.Vector3, UnityEngine.CoreModule
    - Name: 
      Entry: 4
      Data: 1.5
    - Name: 
      Entry: 4
      Data: 0
    - Name: 
      Entry: 4
      Data: 1.5
    - Name: 
      Entry: 8
      Data: 
    - Name: 
      Entry: 3
      Data: 3
    - Name: 
      Entry: 8
      Data: 
    - Name: 
      Entry: 7
      Data: 
    - Name: 
      Entry: 7
      Data: UnityEngine.Vector3, UnityEngine.CoreModule
    - Name: 
      Entry: 4
      Data: 1.5
    - Name: 
      Entry: 4
      Data: 0
    - Name: 
      Entry: 4
      Data: 0.5
    - Name: 
      Entry: 8
      Data: 
    - Name: 
      Entry: 3
      Data: 3
    - Name: 
      Entry: 8
      Data: 
    - Name: 
      Entry: 7
      Data: 
    - Name: 
      Entry: 7
      Data: UnityEngine.Vector3, UnityEngine.CoreModule
    - Name: 
      Entry: 4
      Data: 1.5
    - Name: 
      Entry: 4
      Data: 0
    - Name: 
      Entry: 4
      Data: -0.5
    - Name: 
      Entry: 8
      Data: 
    - Name: 
      Entry: 3
      Data: 3
    - Name: 
      Entry: 8
      Data: 
    - Name: 
      Entry: 7
      Data: 
    - Name: 
      Entry: 7
      Data: UnityEngine.Vector3, UnityEngine.CoreModule
    - Name: 
      Entry: 4
      Data: 1.5
    - Name: 
      Entry: 4
      Data: 0
    - Name: 
      Entry: 4
      Data: -1.5
    - Name: 
      Entry: 8
      Data: 
    - Name: 
      Entry: 3
      Data: 3
    - Name: 
      Entry: 8
      Data: 
    - Name: 
      Entry: 7
      Data: 
    - Name: 
      Entry: 7
      Data: UnityEngine.Vector3, UnityEngine.CoreModule
    - Name: 
      Entry: 4
      Data: 1.5
    - Name: 
      Entry: 4
      Data: 0
    - Name: 
      Entry: 4
      Data: -2.5
    - Name: 
      Entry: 8
      Data: 
    - Name: 
      Entry: 3
      Data: 3
    - Name: 
      Entry: 8
      Data: 
    - Name: 
      Entry: 7
      Data: 
    - Name: 
      Entry: 7
      Data: UnityEngine.Vector3, UnityEngine.CoreModule
    - Name: 
      Entry: 4
      Data: 1.5
    - Name: 
      Entry: 4
      Data: 0
    - Name: 
      Entry: 4
      Data: -3.5
    - Name: 
      Entry: 8
      Data: 
    - Name: 
      Entry: 3
      Data: 3
    - Name: 
      Entry: 8
      Data: 
    - Name: 
      Entry: 7
      Data: 
    - Name: 
      Entry: 7
      Data: UnityEngine.Vector3, UnityEngine.CoreModule
    - Name: 
      Entry: 4
      Data: 1.5
    - Name: 
      Entry: 4
      Data: 0
    - Name: 
      Entry: 4
      Data: -5.5
    - Name: 
      Entry: 8
      Data: 
    - Name: 
      Entry: 3
      Data: 3
    - Name: 
      Entry: 8
      Data: 
    - Name: 
      Entry: 7
      Data: 
    - Name: 
      Entry: 7
      Data: UnityEngine.Vector3, UnityEngine.CoreModule
    - Name: 
      Entry: 4
      Data: 1.5
    - Name: 
      Entry: 4
      Data: 0
    - Name: 
      Entry: 4
      Data: -6.5
    - Name: 
      Entry: 8
      Data: 
    - Name: 
      Entry: 3
      Data: 3
    - Name: 
      Entry: 8
      Data: 
    - Name: 
      Entry: 7
      Data: 
    - Name: 
      Entry: 7
      Data: UnityEngine.Vector3, UnityEngine.CoreModule
    - Name: 
      Entry: 4
      Data: 2.5
    - Name: 
      Entry: 4
      Data: 0
    - Name: 
      Entry: 4
      Data: -6.5
    - Name: 
      Entry: 8
      Data: 
    - Name: 
      Entry: 3
      Data: 3
    - Name: 
      Entry: 8
      Data: 
    - Name: 
      Entry: 7
      Data: 
    - Name: 
      Entry: 7
      Data: UnityEngine.Vector3, UnityEngine.CoreModule
    - Name: 
      Entry: 4
      Data: 2.5
    - Name: 
      Entry: 4
      Data: 0
    - Name: 
      Entry: 4
      Data: -5.5
    - Name: 
      Entry: 8
      Data: 
    - Name: 
      Entry: 3
      Data: 3
    - Name: 
      Entry: 8
      Data: 
    - Name: 
      Entry: 7
      Data: 
    - Name: 
      Entry: 7
      Data: UnityEngine.Vector3, UnityEngine.CoreModule
    - Name: 
      Entry: 4
      Data: 2.5
    - Name: 
      Entry: 4
      Data: 0
    - Name: 
      Entry: 4
      Data: -3.5
    - Name: 
      Entry: 8
      Data: 
    - Name: 
      Entry: 3
      Data: 3
    - Name: 
      Entry: 8
      Data: 
    - Name: 
      Entry: 7
      Data: 
    - Name: 
      Entry: 7
      Data: UnityEngine.Vector3, UnityEngine.CoreModule
    - Name: 
      Entry: 4
      Data: 2.5
    - Name: 
      Entry: 4
      Data: 0
    - Name: 
      Entry: 4
      Data: -2.5
    - Name: 
      Entry: 8
      Data: 
    - Name: 
      Entry: 3
      Data: 3
    - Name: 
      Entry: 8
      Data: 
    - Name: 
      Entry: 7
      Data: 
    - Name: 
      Entry: 7
      Data: UnityEngine.Vector3, UnityEngine.CoreModule
    - Name: 
      Entry: 4
      Data: 2.5
    - Name: 
      Entry: 4
      Data: 0
    - Name: 
      Entry: 4
      Data: -1.5
    - Name: 
      Entry: 8
      Data: 
    - Name: 
      Entry: 3
      Data: 3
    - Name: 
      Entry: 8
      Data: 
    - Name: 
      Entry: 7
      Data: 
    - Name: 
      Entry: 7
      Data: UnityEngine.Vector3, UnityEngine.CoreModule
    - Name: 
      Entry: 4
      Data: 2.5
    - Name: 
      Entry: 4
      Data: 0
    - Name: 
      Entry: 4
      Data: 7.5
    - Name: 
      Entry: 8
      Data: 
    - Name: 
      Entry: 3
      Data: 3
    - Name: 
      Entry: 8
      Data: 
    - Name: 
      Entry: 7
      Data: 
    - Name: 
      Entry: 7
      Data: UnityEngine.Vector3, UnityEngine.CoreModule
    - Name: 
      Entry: 4
      Data: 2.5
    - Name: 
      Entry: 4
      Data: 0
    - Name: 
      Entry: 4
      Data: 6.5
    - Name: 
      Entry: 8
      Data: 
    - Name: 
      Entry: 3
      Data: 3
    - Name: 
      Entry: 8
      Data: 
    - Name: 
      Entry: 7
      Data: 
    - Name: 
      Entry: 7
      Data: UnityEngine.Vector3, UnityEngine.CoreModule
    - Name: 
      Entry: 4
      Data: 2.5
    - Name: 
      Entry: 4
      Data: 0
    - Name: 
      Entry: 4
      Data: 5.5
    - Name: 
      Entry: 8
      Data: 
    - Name: 
      Entry: 3
      Data: 3
    - Name: 
      Entry: 8
      Data: 
    - Name: 
      Entry: 7
      Data: 
    - Name: 
      Entry: 7
      Data: UnityEngine.Vector3, UnityEngine.CoreModule
    - Name: 
      Entry: 4
      Data: 2.5
    - Name: 
      Entry: 4
      Data: 0
    - Name: 
      Entry: 4
      Data: -0.5
    - Name: 
      Entry: 8
      Data: 
    - Name: 
      Entry: 3
      Data: 3
    - Name: 
      Entry: 8
      Data: 
    - Name: 
      Entry: 7
      Data: 
    - Name: 
      Entry: 7
      Data: UnityEngine.Vector3, UnityEngine.CoreModule
    - Name: 
      Entry: 4
      Data: 3.5
    - Name: 
      Entry: 4
      Data: 0
    - Name: 
      Entry: 4
      Data: 6.5
    - Name: 
      Entry: 8
      Data: 
    - Name: 
      Entry: 3
      Data: 3
    - Name: 
      Entry: 8
      Data: 
    - Name: 
      Entry: 7
      Data: 
    - Name: 
      Entry: 7
      Data: UnityEngine.Vector3, UnityEngine.CoreModule
    - Name: 
      Entry: 4
      Data: 3.5
    - Name: 
      Entry: 4
      Data: 0
    - Name: 
      Entry: 4
      Data: 7.5
    - Name: 
      Entry: 8
      Data: 
    - Name: 
      Entry: 3
      Data: 3
    - Name: 
      Entry: 8
      Data: 
    - Name: 
      Entry: 7
      Data: 
    - Name: 
      Entry: 7
      Data: UnityEngine.Vector3, UnityEngine.CoreModule
    - Name: 
      Entry: 4
      Data: 3.5
    - Name: 
      Entry: 4
      Data: 0
    - Name: 
      Entry: 4
      Data: 5.5
    - Name: 
      Entry: 8
      Data: 
    - Name: 
      Entry: 3
      Data: 3
    - Name: 
      Entry: 8
      Data: 
    - Name: 
      Entry: 7
      Data: 
    - Name: 
      Entry: 7
      Data: UnityEngine.Vector3, UnityEngine.CoreModule
    - Name: 
      Entry: 4
      Data: 3.5
    - Name: 
      Entry: 4
      Data: 0
    - Name: 
      Entry: 4
      Data: 3.5
    - Name: 
      Entry: 8
      Data: 
    - Name: 
      Entry: 3
      Data: 3
    - Name: 
      Entry: 8
      Data: 
    - Name: 
      Entry: 7
      Data: 
    - Name: 
      Entry: 7
      Data: UnityEngine.Vector3, UnityEngine.CoreModule
    - Name: 
      Entry: 4
      Data: 3.5
    - Name: 
      Entry: 4
      Data: 0
    - Name: 
      Entry: 4
      Data: 2.5
    - Name: 
      Entry: 8
      Data: 
    - Name: 
      Entry: 3
      Data: 3
    - Name: 
      Entry: 8
      Data: 
    - Name: 
      Entry: 7
      Data: 
    - Name: 
      Entry: 7
      Data: UnityEngine.Vector3, UnityEngine.CoreModule
    - Name: 
      Entry: 4
      Data: 3.5
    - Name: 
      Entry: 4
      Data: 0
    - Name: 
      Entry: 4
      Data: 1.5
    - Name: 
      Entry: 8
      Data: 
    - Name: 
      Entry: 3
      Data: 3
    - Name: 
      Entry: 8
      Data: 
    - Name: 
      Entry: 7
      Data: 
    - Name: 
      Entry: 7
      Data: UnityEngine.Vector3, UnityEngine.CoreModule
    - Name: 
      Entry: 4
      Data: 3.5
    - Name: 
      Entry: 4
      Data: 0
    - Name: 
      Entry: 4
      Data: 0.5
    - Name: 
      Entry: 8
      Data: 
    - Name: 
      Entry: 3
      Data: 3
    - Name: 
      Entry: 8
      Data: 
    - Name: 
      Entry: 7
      Data: 
    - Name: 
      Entry: 7
      Data: UnityEngine.Vector3, UnityEngine.CoreModule
    - Name: 
      Entry: 4
      Data: 3.5
    - Name: 
      Entry: 4
      Data: 0
    - Name: 
      Entry: 4
      Data: -0.5
    - Name: 
      Entry: 8
      Data: 
    - Name: 
      Entry: 3
      Data: 3
    - Name: 
      Entry: 8
      Data: 
    - Name: 
      Entry: 7
      Data: 
    - Name: 
      Entry: 7
      Data: UnityEngine.Vector3, UnityEngine.CoreModule
    - Name: 
      Entry: 4
      Data: 3.5
    - Name: 
      Entry: 4
      Data: 0
    - Name: 
      Entry: 4
      Data: -1.5
    - Name: 
      Entry: 8
      Data: 
    - Name: 
      Entry: 3
      Data: 3
    - Name: 
      Entry: 8
      Data: 
    - Name: 
      Entry: 7
      Data: 
    - Name: 
      Entry: 7
      Data: UnityEngine.Vector3, UnityEngine.CoreModule
    - Name: 
      Entry: 4
      Data: 4.5
    - Name: 
      Entry: 4
      Data: 0
    - Name: 
      Entry: 4
      Data: -1.5
    - Name: 
      Entry: 8
      Data: 
    - Name: 
      Entry: 3
      Data: 3
    - Name: 
      Entry: 8
      Data: 
    - Name: 
      Entry: 7
      Data: 
    - Name: 
      Entry: 7
      Data: UnityEngine.Vector3, UnityEngine.CoreModule
    - Name: 
      Entry: 4
      Data: 4.5
    - Name: 
      Entry: 4
      Data: 0
    - Name: 
      Entry: 4
      Data: -2.5
    - Name: 
      Entry: 8
      Data: 
    - Name: 
      Entry: 3
      Data: 3
    - Name: 
      Entry: 8
      Data: 
    - Name: 
      Entry: 7
      Data: 
    - Name: 
      Entry: 7
      Data: UnityEngine.Vector3, UnityEngine.CoreModule
    - Name: 
      Entry: 4
      Data: 4.5
    - Name: 
      Entry: 4
      Data: 0
    - Name: 
      Entry: 4
      Data: -4.5
    - Name: 
      Entry: 8
      Data: 
    - Name: 
      Entry: 3
      Data: 3
    - Name: 
      Entry: 8
      Data: 
    - Name: 
      Entry: 7
      Data: 
    - Name: 
      Entry: 7
      Data: UnityEngine.Vector3, UnityEngine.CoreModule
    - Name: 
      Entry: 4
      Data: 4.5
    - Name: 
      Entry: 4
      Data: 0
    - Name: 
      Entry: 4
      Data: -5.5
    - Name: 
      Entry: 8
      Data: 
    - Name: 
      Entry: 3
      Data: 3
    - Name: 
      Entry: 8
      Data: 
    - Name: 
      Entry: 7
      Data: 
    - Name: 
      Entry: 7
      Data: UnityEngine.Vector3, UnityEngine.CoreModule
    - Name: 
      Entry: 4
      Data: 3.5
    - Name: 
      Entry: 4
      Data: 0
    - Name: 
      Entry: 4
      Data: -5.5
    - Name: 
      Entry: 8
      Data: 
    - Name: 
      Entry: 3
      Data: 3
    - Name: 
      Entry: 8
      Data: 
    - Name: 
      Entry: 7
      Data: 
    - Name: 
      Entry: 7
      Data: UnityEngine.Vector3, UnityEngine.CoreModule
    - Name: 
      Entry: 4
      Data: 3.5
    - Name: 
      Entry: 4
      Data: 0
    - Name: 
      Entry: 4
      Data: -6.5
    - Name: 
      Entry: 8
      Data: 
    - Name: 
      Entry: 3
      Data: 3
    - Name: 
      Entry: 8
      Data: 
    - Name: 
      Entry: 7
      Data: 
    - Name: 
      Entry: 7
      Data: UnityEngine.Vector3, UnityEngine.CoreModule
    - Name: 
      Entry: 4
      Data: 4.5
    - Name: 
      Entry: 4
      Data: 0
    - Name: 
      Entry: 4
      Data: -6.5
    - Name: 
      Entry: 8
      Data: 
    - Name: 
      Entry: 3
      Data: 3
    - Name: 
      Entry: 8
      Data: 
    - Name: 
      Entry: 7
      Data: 
    - Name: 
      Entry: 7
      Data: UnityEngine.Vector3, UnityEngine.CoreModule
    - Name: 
      Entry: 4
      Data: 5.5
    - Name: 
      Entry: 4
      Data: 0
    - Name: 
      Entry: 4
      Data: -6.5
    - Name: 
      Entry: 8
      Data: 
    - Name: 
      Entry: 3
      Data: 3
    - Name: 
      Entry: 8
      Data: 
    - Name: 
      Entry: 7
      Data: 
    - Name: 
      Entry: 7
      Data: UnityEngine.Vector3, UnityEngine.CoreModule
    - Name: 
      Entry: 4
      Data: 6.5
    - Name: 
      Entry: 4
      Data: 0
    - Name: 
      Entry: 4
      Data: -5.5
    - Name: 
      Entry: 8
      Data: 
    - Name: 
      Entry: 3
      Data: 3
    - Name: 
      Entry: 8
      Data: 
    - Name: 
      Entry: 7
      Data: 
    - Name: 
      Entry: 7
      Data: UnityEngine.Vector3, UnityEngine.CoreModule
    - Name: 
      Entry: 4
      Data: 6.5
    - Name: 
      Entry: 4
      Data: 0
    - Name: 
      Entry: 4
      Data: -6.5
    - Name: 
      Entry: 8
      Data: 
    - Name: 
      Entry: 3
      Data: 3
    - Name: 
      Entry: 8
      Data: 
    - Name: 
      Entry: 7
      Data: 
    - Name: 
      Entry: 7
      Data: UnityEngine.Vector3, UnityEngine.CoreModule
    - Name: 
      Entry: 4
      Data: 6.5
    - Name: 
      Entry: 4
      Data: 0
    - Name: 
      Entry: 4
      Data: -4.5
    - Name: 
      Entry: 8
      Data: 
    - Name: 
      Entry: 3
      Data: 3
    - Name: 
      Entry: 8
      Data: 
    - Name: 
      Entry: 7
      Data: 
    - Name: 
      Entry: 7
      Data: UnityEngine.Vector3, UnityEngine.CoreModule
    - Name: 
      Entry: 4
      Data: 6.5
    - Name: 
      Entry: 4
      Data: 0
    - Name: 
      Entry: 4
      Data: -3.5
    - Name: 
      Entry: 8
      Data: 
    - Name: 
      Entry: 3
      Data: 3
    - Name: 
      Entry: 8
      Data: 
    - Name: 
      Entry: 7
      Data: 
    - Name: 
      Entry: 7
      Data: UnityEngine.Vector3, UnityEngine.CoreModule
    - Name: 
      Entry: 4
      Data: 6.5
    - Name: 
      Entry: 4
      Data: 0
    - Name: 
      Entry: 4
      Data: -2.5
    - Name: 
      Entry: 8
      Data: 
    - Name: 
      Entry: 3
      Data: 3
    - Name: 
      Entry: 8
      Data: 
    - Name: 
      Entry: 7
      Data: 
    - Name: 
      Entry: 7
      Data: UnityEngine.Vector3, UnityEngine.CoreModule
    - Name: 
      Entry: 4
      Data: 6.5
    - Name: 
      Entry: 4
      Data: 0
    - Name: 
      Entry: 4
      Data: -1.5
    - Name: 
      Entry: 8
      Data: 
    - Name: 
      Entry: 3
      Data: 3
    - Name: 
      Entry: 8
      Data: 
    - Name: 
      Entry: 7
      Data: 
    - Name: 
      Entry: 7
      Data: UnityEngine.Vector3, UnityEngine.CoreModule
    - Name: 
      Entry: 4
      Data: 6.5
    - Name: 
      Entry: 4
      Data: 0
    - Name: 
      Entry: 4
      Data: -0.5
    - Name: 
      Entry: 8
      Data: 
    - Name: 
      Entry: 3
      Data: 3
    - Name: 
      Entry: 8
      Data: 
    - Name: 
      Entry: 7
      Data: 
    - Name: 
      Entry: 7
      Data: UnityEngine.Vector3, UnityEngine.CoreModule
    - Name: 
      Entry: 4
      Data: 6.5
    - Name: 
      Entry: 4
      Data: 0
    - Name: 
      Entry: 4
      Data: 0.5
    - Name: 
      Entry: 8
      Data: 
    - Name: 
      Entry: 3
      Data: 3
    - Name: 
      Entry: 8
      Data: 
    - Name: 
      Entry: 7
      Data: 
    - Name: 
      Entry: 7
      Data: UnityEngine.Vector3, UnityEngine.CoreModule
    - Name: 
      Entry: 4
      Data: 6.5
    - Name: 
      Entry: 4
      Data: 0
    - Name: 
      Entry: 4
      Data: 1.5
    - Name: 
      Entry: 8
      Data: 
    - Name: 
      Entry: 3
      Data: 3
    - Name: 
      Entry: 8
      Data: 
    - Name: 
      Entry: 7
      Data: 
    - Name: 
      Entry: 7
      Data: UnityEngine.Vector3, UnityEngine.CoreModule
    - Name: 
      Entry: 4
      Data: 6.5
    - Name: 
      Entry: 4
      Data: 0
    - Name: 
      Entry: 4
      Data: 2.5
    - Name: 
      Entry: 8
      Data: 
    - Name: 
      Entry: 3
      Data: 3
    - Name: 
      Entry: 8
      Data: 
    - Name: 
      Entry: 7
      Data: 
    - Name: 
      Entry: 7
      Data: UnityEngine.Vector3, UnityEngine.CoreModule
    - Name: 
      Entry: 4
      Data: 6.5
    - Name: 
      Entry: 4
      Data: 0
    - Name: 
      Entry: 4
      Data: 3.5
    - Name: 
      Entry: 8
      Data: 
    - Name: 
      Entry: 3
      Data: 3
    - Name: 
      Entry: 8
      Data: 
    - Name: 
      Entry: 7
      Data: 
    - Name: 
      Entry: 7
      Data: UnityEngine.Vector3, UnityEngine.CoreModule
    - Name: 
      Entry: 4
      Data: 6.5
    - Name: 
      Entry: 4
      Data: 0
    - Name: 
      Entry: 4
      Data: 4.5
    - Name: 
      Entry: 8
      Data: 
    - Name: 
      Entry: 3
      Data: 3
    - Name: 
      Entry: 8
      Data: 
    - Name: 
      Entry: 7
      Data: 
    - Name: 
      Entry: 7
      Data: UnityEngine.Vector3, UnityEngine.CoreModule
    - Name: 
      Entry: 4
      Data: 6.5
    - Name: 
      Entry: 4
      Data: 0
    - Name: 
      Entry: 4
      Data: 5.5
    - Name: 
      Entry: 8
      Data: 
    - Name: 
      Entry: 3
      Data: 3
    - Name: 
      Entry: 8
      Data: 
    - Name: 
      Entry: 7
      Data: 
    - Name: 
      Entry: 7
      Data: UnityEngine.Vector3, UnityEngine.CoreModule
    - Name: 
      Entry: 4
      Data: 6.5
    - Name: 
      Entry: 4
      Data: 0
    - Name: 
      Entry: 4
      Data: 6.5
    - Name: 
      Entry: 8
      Data: 
    - Name: 
      Entry: 3
      Data: 3
    - Name: 
      Entry: 8
      Data: 
    - Name: 
      Entry: 7
      Data: 
    - Name: 
      Entry: 7
      Data: UnityEngine.Vector3, UnityEngine.CoreModule
    - Name: 
      Entry: 4
      Data: 6.5
    - Name: 
      Entry: 4
      Data: 0
    - Name: 
      Entry: 4
      Data: 7.5
    - Name: 
      Entry: 8
      Data: 
    - Name: 
      Entry: 3
      Data: 3
    - Name: 
      Entry: 8
      Data: 
    - Name: 
      Entry: 7
      Data: 
    - Name: 
      Entry: 7
      Data: UnityEngine.Vector3, UnityEngine.CoreModule
    - Name: 
      Entry: 4
      Data: 5.5
    - Name: 
      Entry: 4
      Data: 0
    - Name: 
      Entry: 4
      Data: 7.5
    - Name: 
      Entry: 8
      Data: 
    - Name: 
      Entry: 3
      Data: 3
    - Name: 
      Entry: 8
      Data: 
    - Name: 
      Entry: 7
      Data: 
    - Name: 
      Entry: 7
      Data: UnityEngine.Vector3, UnityEngine.CoreModule
    - Name: 
      Entry: 4
      Data: 4.5
    - Name: 
      Entry: 4
      Data: 0
    - Name: 
      Entry: 4
      Data: 7.5
    - Name: 
      Entry: 8
      Data: 
    - Name: 
      Entry: 3
      Data: 3
    - Name: 
      Entry: 8
      Data: 
    - Name: 
      Entry: 7
      Data: 
    - Name: 
      Entry: 7
      Data: UnityEngine.Vector3, UnityEngine.CoreModule
    - Name: 
      Entry: 4
      Data: 4.5
    - Name: 
      Entry: 4
      Data: 0
    - Name: 
      Entry: 4
      Data: 6.5
    - Name: 
      Entry: 8
      Data: 
    - Name: 
      Entry: 3
      Data: 3
    - Name: 
      Entry: 8
      Data: 
    - Name: 
      Entry: 7
      Data: 
    - Name: 
      Entry: 7
      Data: UnityEngine.Vector3, UnityEngine.CoreModule
    - Name: 
      Entry: 4
      Data: 4.5
    - Name: 
      Entry: 4
      Data: 0
    - Name: 
      Entry: 4
      Data: 5.5
    - Name: 
      Entry: 8
      Data: 
    - Name: 
      Entry: 3
      Data: 3
    - Name: 
      Entry: 8
      Data: 
    - Name: 
      Entry: 7
      Data: 
    - Name: 
      Entry: 7
      Data: UnityEngine.Vector3, UnityEngine.CoreModule
    - Name: 
      Entry: 4
      Data: 4.5
    - Name: 
      Entry: 4
      Data: 0
    - Name: 
      Entry: 4
      Data: -0.5
    - Name: 
      Entry: 8
      Data: 
    - Name: 
      Entry: 3
      Data: 3
    - Name: 
      Entry: 8
      Data: 
    - Name: 
      Entry: 7
      Data: 
    - Name: 
      Entry: 7
      Data: UnityEngine.Vector3, UnityEngine.CoreModule
    - Name: 
      Entry: 4
      Data: 5.5
    - Name: 
      Entry: 4
      Data: 0
    - Name: 
      Entry: 4
      Data: 6.5
    - Name: 
      Entry: 8
      Data: 
    - Name: 
      Entry: 3
      Data: 3
    - Name: 
      Entry: 8
      Data: 
    - Name: 
      Entry: 7
      Data: 
    - Name: 
      Entry: 7
      Data: UnityEngine.Vector3, UnityEngine.CoreModule
    - Name: 
      Entry: 4
      Data: 5.5
    - Name: 
      Entry: 4
      Data: 0
    - Name: 
      Entry: 4
      Data: 5.5
    - Name: 
      Entry: 8
      Data: 
    - Name: 
      Entry: 3
      Data: 3
    - Name: 
      Entry: 8
      Data: 
    - Name: 
      Entry: 7
      Data: 
    - Name: 
      Entry: 7
      Data: UnityEngine.Vector3, UnityEngine.CoreModule
    - Name: 
      Entry: 4
      Data: 5.5
    - Name: 
      Entry: 4
      Data: 0
    - Name: 
      Entry: 4
      Data: 4.5
    - Name: 
      Entry: 8
      Data: 
    - Name: 
      Entry: 3
      Data: 3
    - Name: 
      Entry: 8
      Data: 
    - Name: 
      Entry: 7
      Data: 
    - Name: 
      Entry: 7
      Data: UnityEngine.Vector3, UnityEngine.CoreModule
    - Name: 
      Entry: 4
      Data: 5.5
    - Name: 
      Entry: 4
      Data: 0
    - Name: 
      Entry: 4
      Data: 3.5
    - Name: 
      Entry: 8
      Data: 
    - Name: 
      Entry: 3
      Data: 3
    - Name: 
      Entry: 8
      Data: 
    - Name: 
      Entry: 7
      Data: 
    - Name: 
      Entry: 7
      Data: UnityEngine.Vector3, UnityEngine.CoreModule
    - Name: 
      Entry: 4
      Data: 5.5
    - Name: 
      Entry: 4
      Data: 0
    - Name: 
      Entry: 4
      Data: 2.5
    - Name: 
      Entry: 8
      Data: 
    - Name: 
      Entry: 3
      Data: 3
    - Name: 
      Entry: 8
      Data: 
    - Name: 
      Entry: 7
      Data: 
    - Name: 
      Entry: 7
      Data: UnityEngine.Vector3, UnityEngine.CoreModule
    - Name: 
      Entry: 4
      Data: 5.5
    - Name: 
      Entry: 4
      Data: 0
    - Name: 
      Entry: 4
      Data: 1.5
    - Name: 
      Entry: 8
      Data: 
    - Name: 
      Entry: 3
      Data: 3
    - Name: 
      Entry: 8
      Data: 
    - Name: 
      Entry: 7
      Data: 
    - Name: 
      Entry: 7
      Data: UnityEngine.Vector3, UnityEngine.CoreModule
    - Name: 
      Entry: 4
      Data: 5.5
    - Name: 
      Entry: 4
      Data: 0
    - Name: 
      Entry: 4
      Data: 0.5
    - Name: 
      Entry: 8
      Data: 
    - Name: 
      Entry: 3
      Data: 3
    - Name: 
      Entry: 8
      Data: 
    - Name: 
      Entry: 7
      Data: 
    - Name: 
      Entry: 7
      Data: UnityEngine.Vector3, UnityEngine.CoreModule
    - Name: 
      Entry: 4
      Data: 5.5
    - Name: 
      Entry: 4
      Data: 0
    - Name: 
      Entry: 4
      Data: -0.5
    - Name: 
      Entry: 8
      Data: 
    - Name: 
      Entry: 3
      Data: 3
    - Name: 
      Entry: 8
      Data: 
    - Name: 
      Entry: 7
      Data: 
    - Name: 
      Entry: 7
      Data: UnityEngine.Vector3, UnityEngine.CoreModule
    - Name: 
      Entry: 4
      Data: 5.5
    - Name: 
      Entry: 4
      Data: 0
    - Name: 
      Entry: 4
      Data: -1.5
    - Name: 
      Entry: 8
      Data: 
    - Name: 
      Entry: 3
      Data: 3
    - Name: 
      Entry: 8
      Data: 
    - Name: 
      Entry: 7
      Data: 
    - Name: 
      Entry: 7
      Data: UnityEngine.Vector3, UnityEngine.CoreModule
    - Name: 
      Entry: 4
      Data: 5.5
    - Name: 
      Entry: 4
      Data: 0
    - Name: 
      Entry: 4
      Data: -2.5
    - Name: 
      Entry: 8
      Data: 
    - Name: 
      Entry: 3
      Data: 3
    - Name: 
      Entry: 8
      Data: 
    - Name: 
      Entry: 7
      Data: 
    - Name: 
      Entry: 7
      Data: UnityEngine.Vector3, UnityEngine.CoreModule
    - Name: 
      Entry: 4
      Data: 5.5
    - Name: 
      Entry: 4
      Data: 0
    - Name: 
      Entry: 4
      Data: -3.5
    - Name: 
      Entry: 8
      Data: 
    - Name: 
      Entry: 3
      Data: 3
    - Name: 
      Entry: 8
      Data: 
    - Name: 
      Entry: 7
      Data: 
    - Name: 
      Entry: 7
      Data: UnityEngine.Vector3, UnityEngine.CoreModule
    - Name: 
      Entry: 4
      Data: 5.5
    - Name: 
      Entry: 4
      Data: 0
    - Name: 
      Entry: 4
      Data: -4.5
    - Name: 
      Entry: 8
      Data: 
    - Name: 
      Entry: 3
      Data: 3
    - Name: 
      Entry: 8
      Data: 
    - Name: 
      Entry: 7
      Data: 
    - Name: 
      Entry: 7
      Data: UnityEngine.Vector3, UnityEngine.CoreModule
    - Name: 
      Entry: 4
      Data: 5.5
    - Name: 
      Entry: 4
      Data: 0
    - Name: 
      Entry: 4
      Data: -5.5
    - Name: 
      Entry: 8
      Data: 
    - Name: 
      Entry: 3
      Data: 3
    - Name: 
      Entry: 8
      Data: 
    - Name: 
      Entry: 7
      Data: 
    - Name: 
      Entry: 7
      Data: UnityEngine.Vector3, UnityEngine.CoreModule
    - Name: 
      Entry: 4
      Data: 3.5
    - Name: 
      Entry: 4
      Data: 0
    - Name: 
      Entry: 4
      Data: -3.5
    - Name: 
      Entry: 8
      Data: 
    - Name: 
      Entry: 3
      Data: 3
    - Name: 
      Entry: 8
      Data: 
    - Name: 
      Entry: 7
      Data: 
    - Name: 
      Entry: 7
      Data: UnityEngine.Vector3, UnityEngine.CoreModule
    - Name: 
      Entry: 4
      Data: 3.5
    - Name: 
      Entry: 4
      Data: 0
    - Name: 
      Entry: 4
      Data: -2.5
    - Name: 
      Entry: 8
      Data: 
    - Name: 
      Entry: 3
      Data: 3
    - Name: 
      Entry: 8
      Data: 
    - Name: 
      Entry: 7
      Data: 
    - Name: 
      Entry: 7
      Data: UnityEngine.Vector3, UnityEngine.CoreModule
    - Name: 
      Entry: 4
      Data: -3.5
    - Name: 
      Entry: 4
      Data: 0
    - Name: 
      Entry: 4
      Data: -3.5
    - Name: 
      Entry: 8
      Data: 
    - Name: 
      Entry: 3
      Data: 1
    - Name: 
      Entry: 8
      Data: 
    - Name: 
      Entry: 7
      Data: 
    - Name: 
      Entry: 7
      Data: UnityEngine.Vector3, UnityEngine.CoreModule
    - Name: 
      Entry: 4
      Data: -2.5
    - Name: 
      Entry: 4
      Data: 0
    - Name: 
      Entry: 4
      Data: -4.5
    - Name: 
      Entry: 8
      Data: 
    - Name: 
      Entry: 3
      Data: 1
    - Name: 
      Entry: 8
      Data: 
    - Name: 
      Entry: 7
      Data: 
    - Name: 
      Entry: 7
      Data: UnityEngine.Vector3, UnityEngine.CoreModule
    - Name: 
      Entry: 4
      Data: -1.5
    - Name: 
      Entry: 4
      Data: 0
    - Name: 
      Entry: 4
      Data: -4.5
    - Name: 
      Entry: 8
      Data: 
    - Name: 
      Entry: 3
      Data: 1
    - Name: 
      Entry: 8
      Data: 
    - Name: 
      Entry: 7
      Data: 
    - Name: 
      Entry: 7
      Data: UnityEngine.Vector3, UnityEngine.CoreModule
    - Name: 
      Entry: 4
      Data: -0.5
    - Name: 
      Entry: 4
      Data: 0
    - Name: 
      Entry: 4
      Data: -4.5
    - Name: 
      Entry: 8
      Data: 
    - Name: 
      Entry: 3
      Data: 1
    - Name: 
      Entry: 8
      Data: 
    - Name: 
      Entry: 7
      Data: 
    - Name: 
      Entry: 7
      Data: UnityEngine.Vector3, UnityEngine.CoreModule
    - Name: 
      Entry: 4
      Data: 0.5
    - Name: 
      Entry: 4
      Data: 0
    - Name: 
      Entry: 4
      Data: -4.5
    - Name: 
      Entry: 8
      Data: 
    - Name: 
      Entry: 3
      Data: 1
    - Name: 
      Entry: 8
      Data: 
    - Name: 
      Entry: 7
      Data: 
    - Name: 
      Entry: 7
      Data: UnityEngine.Vector3, UnityEngine.CoreModule
    - Name: 
      Entry: 4
      Data: 1.5
    - Name: 
      Entry: 4
      Data: 0
    - Name: 
      Entry: 4
      Data: -4.5
    - Name: 
      Entry: 8
      Data: 
    - Name: 
      Entry: 3
      Data: 1
    - Name: 
      Entry: 8
      Data: 
    - Name: 
      Entry: 7
      Data: 
    - Name: 
      Entry: 7
      Data: UnityEngine.Vector3, UnityEngine.CoreModule
    - Name: 
      Entry: 4
      Data: 2.5
    - Name: 
      Entry: 4
      Data: 0
    - Name: 
      Entry: 4
      Data: -4.5
    - Name: 
      Entry: 8
      Data: 
    - Name: 
      Entry: 3
      Data: 1
    - Name: 
      Entry: 8
      Data: 
    - Name: 
      Entry: 7
      Data: 
    - Name: 
      Entry: 7
      Data: UnityEngine.Vector3, UnityEngine.CoreModule
    - Name: 
      Entry: 4
      Data: 3.5
    - Name: 
      Entry: 4
      Data: 0
    - Name: 
      Entry: 4
      Data: -4.5
    - Name: 
      Entry: 8
      Data: 
    - Name: 
      Entry: 3
      Data: 1
    - Name: 
      Entry: 8
      Data: 
    - Name: 
      Entry: 7
      Data: 
    - Name: 
      Entry: 7
      Data: UnityEngine.Vector3, UnityEngine.CoreModule
    - Name: 
      Entry: 4
      Data: 4.5
    - Name: 
      Entry: 4
      Data: 0
    - Name: 
      Entry: 4
      Data: -3.5
    - Name: 
      Entry: 8
      Data: 
    - Name: 
      Entry: 3
      Data: 1
    - Name: 
      Entry: 8
      Data: 
    - Name: 
      Entry: 7
      Data: 
    - Name: 
      Entry: 7
      Data: UnityEngine.Vector3, UnityEngine.CoreModule
    - Name: 
      Entry: 4
      Data: -3.5
    - Name: 
      Entry: 4
      Data: 0
    - Name: 
      Entry: 4
      Data: 0.5
    - Name: 
      Entry: 8
      Data: 
    - Name: 
      Entry: 3
      Data: 1
    - Name: 
      Entry: 8
      Data: 
    - Name: 
      Entry: 7
      Data: 
    - Name: 
      Entry: 7
      Data: UnityEngine.Vector3, UnityEngine.CoreModule
    - Name: 
      Entry: 4
      Data: -3.5
    - Name: 
      Entry: 4
      Data: 0
    - Name: 
      Entry: 4
      Data: 1.5
    - Name: 
      Entry: 8
      Data: 
    - Name: 
      Entry: 3
      Data: 1
    - Name: 
      Entry: 8
      Data: 
    - Name: 
      Entry: 7
      Data: 
    - Name: 
      Entry: 7
      Data: UnityEngine.Vector3, UnityEngine.CoreModule
    - Name: 
      Entry: 4
      Data: -3.5
    - Name: 
      Entry: 4
      Data: 0
    - Name: 
      Entry: 4
      Data: 2.5
    - Name: 
      Entry: 8
      Data: 
    - Name: 
      Entry: 3
      Data: 1
    - Name: 
      Entry: 8
      Data: 
    - Name: 
      Entry: 7
      Data: 
    - Name: 
      Entry: 7
      Data: UnityEngine.Vector3, UnityEngine.CoreModule
    - Name: 
      Entry: 4
      Data: -3.5
    - Name: 
      Entry: 4
      Data: 0
    - Name: 
      Entry: 4
      Data: 3.5
    - Name: 
      Entry: 8
      Data: 
    - Name: 
      Entry: 3
      Data: 1
    - Name: 
      Entry: 8
      Data: 
    - Name: 
      Entry: 7
      Data: 
    - Name: 
      Entry: 7
      Data: UnityEngine.Vector3, UnityEngine.CoreModule
    - Name: 
      Entry: 4
      Data: -3.5
    - Name: 
      Entry: 4
      Data: 0
    - Name: 
      Entry: 4
      Data: 4.5
    - Name: 
      Entry: 8
      Data: 
    - Name: 
      Entry: 3
      Data: 1
    - Name: 
      Entry: 8
      Data: 
    - Name: 
      Entry: 7
      Data: 
    - Name: 
      Entry: 7
      Data: UnityEngine.Vector3, UnityEngine.CoreModule
    - Name: 
      Entry: 4
      Data: -2.5
    - Name: 
      Entry: 4
      Data: 0
    - Name: 
      Entry: 4
      Data: 4.5
    - Name: 
      Entry: 8
      Data: 
    - Name: 
      Entry: 3
      Data: 1
    - Name: 
      Entry: 8
      Data: 
    - Name: 
      Entry: 7
      Data: 
    - Name: 
      Entry: 7
      Data: UnityEngine.Vector3, UnityEngine.CoreModule
    - Name: 
      Entry: 4
      Data: -1.5
    - Name: 
      Entry: 4
      Data: 0
    - Name: 
      Entry: 4
      Data: 4.5
    - Name: 
      Entry: 8
      Data: 
    - Name: 
      Entry: 3
      Data: 1
    - Name: 
      Entry: 8
      Data: 
    - Name: 
      Entry: 7
      Data: 
    - Name: 
      Entry: 7
      Data: UnityEngine.Vector3, UnityEngine.CoreModule
    - Name: 
      Entry: 4
      Data: -1.5
    - Name: 
      Entry: 4
      Data: 0
    - Name: 
      Entry: 4
      Data: 3.5
    - Name: 
      Entry: 8
      Data: 
    - Name: 
      Entry: 3
      Data: 1
    - Name: 
      Entry: 8
      Data: 
    - Name: 
      Entry: 7
      Data: 
    - Name: 
      Entry: 7
      Data: UnityEngine.Vector3, UnityEngine.CoreModule
    - Name: 
      Entry: 4
      Data: -1.5
    - Name: 
      Entry: 4
      Data: 0
    - Name: 
      Entry: 4
      Data: 2.5
    - Name: 
      Entry: 8
      Data: 
    - Name: 
      Entry: 3
      Data: 1
    - Name: 
      Entry: 8
      Data: 
    - Name: 
      Entry: 7
      Data: 
    - Name: 
      Entry: 7
      Data: UnityEngine.Vector3, UnityEngine.CoreModule
    - Name: 
      Entry: 4
      Data: -1.5
    - Name: 
      Entry: 4
      Data: 0
    - Name: 
      Entry: 4
      Data: 1.5
    - Name: 
      Entry: 8
      Data: 
    - Name: 
      Entry: 3
      Data: 1
    - Name: 
      Entry: 8
      Data: 
    - Name: 
      Entry: 7
      Data: 
    - Name: 
      Entry: 7
      Data: UnityEngine.Vector3, UnityEngine.CoreModule
    - Name: 
      Entry: 4
      Data: -1.5
    - Name: 
      Entry: 4
      Data: 0
    - Name: 
      Entry: 4
      Data: 0.5
    - Name: 
      Entry: 8
      Data: 
    - Name: 
      Entry: 3
      Data: 1
    - Name: 
      Entry: 8
      Data: 
    - Name: 
      Entry: 7
      Data: 
    - Name: 
      Entry: 7
      Data: UnityEngine.Vector3, UnityEngine.CoreModule
    - Name: 
      Entry: 4
      Data: 2.5
    - Name: 
      Entry: 4
      Data: 0
    - Name: 
      Entry: 4
      Data: 0.5
    - Name: 
      Entry: 8
      Data: 
    - Name: 
      Entry: 3
      Data: 1
    - Name: 
      Entry: 8
      Data: 
    - Name: 
      Entry: 7
      Data: 
    - Name: 
      Entry: 7
      Data: UnityEngine.Vector3, UnityEngine.CoreModule
    - Name: 
      Entry: 4
      Data: 2.5
    - Name: 
      Entry: 4
      Data: 0
    - Name: 
      Entry: 4
      Data: 1.5
    - Name: 
      Entry: 8
      Data: 
    - Name: 
      Entry: 3
      Data: 1
    - Name: 
      Entry: 8
      Data: 
    - Name: 
      Entry: 7
      Data: 
    - Name: 
      Entry: 7
      Data: UnityEngine.Vector3, UnityEngine.CoreModule
    - Name: 
      Entry: 4
      Data: 2.5
    - Name: 
      Entry: 4
      Data: 0
    - Name: 
      Entry: 4
      Data: 2.5
    - Name: 
      Entry: 8
      Data: 
    - Name: 
      Entry: 3
      Data: 1
    - Name: 
      Entry: 8
      Data: 
    - Name: 
      Entry: 7
      Data: 
    - Name: 
      Entry: 7
      Data: UnityEngine.Vector3, UnityEngine.CoreModule
    - Name: 
      Entry: 4
      Data: 2.5
    - Name: 
      Entry: 4
      Data: 0
    - Name: 
      Entry: 4
      Data: 3.5
    - Name: 
      Entry: 8
      Data: 
    - Name: 
      Entry: 3
      Data: 1
    - Name: 
      Entry: 8
      Data: 
    - Name: 
      Entry: 7
      Data: 
    - Name: 
      Entry: 7
      Data: UnityEngine.Vector3, UnityEngine.CoreModule
    - Name: 
      Entry: 4
      Data: 2.5
    - Name: 
      Entry: 4
      Data: 0
    - Name: 
      Entry: 4
      Data: 4.5
    - Name: 
      Entry: 8
      Data: 
    - Name: 
      Entry: 3
      Data: 1
    - Name: 
      Entry: 8
      Data: 
    - Name: 
      Entry: 7
      Data: 
    - Name: 
      Entry: 7
      Data: UnityEngine.Vector3, UnityEngine.CoreModule
    - Name: 
      Entry: 4
      Data: 3.5
    - Name: 
      Entry: 4
      Data: 0
    - Name: 
      Entry: 4
      Data: 4.5
    - Name: 
      Entry: 8
      Data: 
    - Name: 
      Entry: 3
      Data: 1
    - Name: 
      Entry: 8
      Data: 
    - Name: 
      Entry: 7
      Data: 
    - Name: 
      Entry: 7
      Data: UnityEngine.Vector3, UnityEngine.CoreModule
    - Name: 
      Entry: 4
      Data: 4.5
    - Name: 
      Entry: 4
      Data: 0
    - Name: 
      Entry: 4
      Data: 4.5
    - Name: 
      Entry: 8
      Data: 
    - Name: 
      Entry: 3
      Data: 1
    - Name: 
      Entry: 8
      Data: 
    - Name: 
      Entry: 7
      Data: 
    - Name: 
      Entry: 7
      Data: UnityEngine.Vector3, UnityEngine.CoreModule
    - Name: 
      Entry: 4
      Data: 4.5
    - Name: 
      Entry: 4
      Data: 0
    - Name: 
      Entry: 4
      Data: 3.5
    - Name: 
      Entry: 8
      Data: 
    - Name: 
      Entry: 3
      Data: 1
    - Name: 
      Entry: 8
      Data: 
    - Name: 
      Entry: 7
      Data: 
    - Name: 
      Entry: 7
      Data: UnityEngine.Vector3, UnityEngine.CoreModule
    - Name: 
      Entry: 4
      Data: 4.5
    - Name: 
      Entry: 4
      Data: 0
    - Name: 
      Entry: 4
      Data: 2.5
    - Name: 
      Entry: 8
      Data: 
    - Name: 
      Entry: 3
      Data: 1
    - Name: 
      Entry: 8
      Data: 
    - Name: 
      Entry: 7
      Data: 
    - Name: 
      Entry: 7
      Data: UnityEngine.Vector3, UnityEngine.CoreModule
    - Name: 
      Entry: 4
      Data: 4.5
    - Name: 
      Entry: 4
      Data: 0
    - Name: 
      Entry: 4
      Data: 1.5
    - Name: 
      Entry: 8
      Data: 
    - Name: 
      Entry: 3
      Data: 1
    - Name: 
      Entry: 8
      Data: 
    - Name: 
      Entry: 7
      Data: 
    - Name: 
      Entry: 7
      Data: UnityEngine.Vector3, UnityEngine.CoreModule
    - Name: 
      Entry: 4
      Data: 4.5
    - Name: 
      Entry: 4
      Data: 0
    - Name: 
      Entry: 4
      Data: 0.5
    - Name: 
      Entry: 8
      Data: 
    - Name: 
      Entry: 3
      Data: 1
    - Name: 
      Entry: 8
      Data: 
    - Name: 
      Entry: 7
      Data: 
    - Name: 
      Entry: 7
      Data: UnityEngine.Vector3, UnityEngine.CoreModule
    - Name: 
      Entry: 4
      Data: 1.5
    - Name: 
      Entry: 4
      Data: 0
    - Name: 
      Entry: 4
      Data: 4.5
    - Name: 
      Entry: 8
      Data: 
    - Name: 
      Entry: 3
      Data: 3
    - Name: 
      Entry: 8
      Data: 
    - Name: 
      Entry: 7
      Data: 
    - Name: 
      Entry: 7
      Data: UnityEngine.Vector3, UnityEngine.CoreModule
    - Name: 
      Entry: 4
      Data: 1.5
    - Name: 
      Entry: 4
      Data: 0
    - Name: 
      Entry: 4
      Data: 3.5
    - Name: 
      Entry: 8
      Data: 
    - Name: 
      Entry: 3
      Data: 3
    - Name: 
      Entry: 8
      Data: 
    - Name: 
      Entry: 7
      Data: 
    - Name: 
      Entry: 7
      Data: UnityEngine.Vector3, UnityEngine.CoreModule
    - Name: 
      Entry: 4
      Data: 1.5
    - Name: 
      Entry: 4
      Data: 0
    - Name: 
      Entry: 4
      Data: 2.5
    - Name: 
      Entry: 8
      Data: 
    - Name: 
      Entry: 3
      Data: 3
    - Name: 
      Entry: 8
      Data: 
    - Name: 
      Entry: 13
      Data: 
    - Name: 
      Entry: 8
      Data: 
    - Name: enemy
      Entry: 7
      Data: 2|System.Collections.Generic.Dictionary`2[[UnityEngine.Vector3, UnityEngine.CoreModule],[EnemyType,
        Assembly-CSharp]], mscorlib
    - Name: comparer
      Entry: 9
      Data: 1
    - Name: 
      Entry: 12
      Data: 4
    - Name: 
      Entry: 7
      Data: 
    - Name: 
      Entry: 7
      Data: UnityEngine.Vector3, UnityEngine.CoreModule
    - Name: 
      Entry: 4
      Data: 3.5
    - Name: 
      Entry: 4
      Data: 1
    - Name: 
      Entry: 4
      Data: 2.5
    - Name: 
      Entry: 8
      Data: 
    - Name: 
      Entry: 3
      Data: 3
    - Name: 
      Entry: 8
      Data: 
    - Name: 
      Entry: 7
      Data: 
    - Name: 
      Entry: 7
      Data: UnityEngine.Vector3, UnityEngine.CoreModule
    - Name: 
      Entry: 4
      Data: 3.5
    - Name: 
      Entry: 4
      Data: 1
    - Name: 
      Entry: 4
      Data: 0.5
    - Name: 
      Entry: 8
      Data: 
    - Name: 
      Entry: 3
      Data: 3
    - Name: 
      Entry: 8
      Data: 
    - Name: 
      Entry: 7
      Data: 
    - Name: 
      Entry: 7
      Data: UnityEngine.Vector3, UnityEngine.CoreModule
    - Name: 
      Entry: 4
      Data: -2.5
    - Name: 
      Entry: 4
      Data: 1
    - Name: 
      Entry: 4
      Data: 2.5
    - Name: 
      Entry: 8
      Data: 
    - Name: 
      Entry: 3
      Data: 3
    - Name: 
      Entry: 8
      Data: 
    - Name: 
      Entry: 7
      Data: 
    - Name: 
      Entry: 7
      Data: UnityEngine.Vector3, UnityEngine.CoreModule
    - Name: 
      Entry: 4
      Data: -2.5
    - Name: 
      Entry: 4
      Data: 1
    - Name: 
      Entry: 4
      Data: 0.5
    - Name: 
      Entry: 8
      Data: 
    - Name: 
      Entry: 3
      Data: 3
    - Name: 
      Entry: 8
      Data: 
    - Name: 
      Entry: 13
      Data: 
    - Name: 
      Entry: 8
      Data: 
  type: 0
  mapSize: {x: 13, y: 15}
  player: {x: 0.5, y: 1, z: -6.5}
  altar: {x: 0.5, y: 1, z: 5.5}
