%YAML 1.1
%TAG !u! tag:unity3d.com,2011:
--- !u!78 &1
TagManager:
  serializedVersion: 2
  tags:
  - LevelBounds
  - FX
  - Enemy
  - World
  - Wall
  - Water
  layers:
  - Default
  - TransparentFX
  - Ignore Raycast
  - 
  - Water
  - UI
  - 
  - 
  - Obstacles
  - Ground
  - Player
  - ObstaclesDoors
  - NoPathfinding
  - Enemies
  - NoCollisions
  - Hole
  - MovingPlatform
  - FallingPlatform
  - Projectile
  - Camera1
  - Camera2
  - Camera3
  - WaterMap
  - PlayerPassable
  - PlayerDispassable
  - AttackCell
  - EnemyAttackCell
  - 
  - 
  - 
  - 
  - 
  m_SortingLayers:
  - name: Default
    uniqueID: 0
    locked: 0
  - name: Background
    uniqueID: 1798043625
    locked: 0
  - name: Ground
    uniqueID: 2296623839
    locked: 0
  - name: Foreground
    uniqueID: 1603220759
    locked: 0
  - name: Characters
    uniqueID: 47421343
    locked: 0
  - name: Above
    uniqueID: 961700441
    locked: 0
