%YAML 1.1
%TAG !u! tag:unity3d.com,2011:
--- !u!114 &11400000
MonoBehaviour:
  m_ObjectHideFlags: 0
  m_CorrespondingSourceObject: {fileID: 0}
  m_PrefabInstance: {fileID: 0}
  m_PrefabAsset: {fileID: 0}
  m_GameObject: {fileID: 0}
  m_Enabled: 1
  m_EditorHideFlags: 0
  m_Script: {fileID: 11500000, guid: 4b87f352ceb499548b87cdfb94fa8033, type: 3}
  m_Name: ChallengeAltarSeed
  m_EditorClassIdentifier: 
  serializationData:
    SerializedFormat: 2
    SerializedBytes: 
    ReferencedUnityObjects: []
    SerializedBytesString: 
    Prefab: {fileID: 0}
    PrefabModificationsReferencedUnityObjects: []
    PrefabModifications: []
    SerializationNodes:
    - Name: infos
      Entry: 7
      Data: 0|System.Collections.Generic.List`1[[RandomSeedAsset+SeedInfo, Assembly-CSharp]],
        mscorlib
    - Name: 
      Entry: 12
      Data: 3
    - Name: 
      Entry: 7
      Data: RandomSeedAsset+SeedInfo, Assembly-CSharp
    - Name: name
      Entry: 1
      Data: Normal
    - Name: weight
      Entry: 3
      Data: 25
    - Name: 
      Entry: 8
      Data: 
    - Name: 
      Entry: 7
      Data: RandomSeedAsset+SeedInfo, Assembly-CSharp
    - Name: name
      Entry: 1
      Data: Rare
    - Name: weight
      Entry: 3
      Data: 100
    - Name: 
      Entry: 8
      Data: 
    - Name: 
      Entry: 7
      Data: RandomSeedAsset+SeedInfo, Assembly-CSharp
    - Name: name
      Entry: 1
      Data: Excellent
    - Name: weight
      Entry: 3
      Data: 0
    - Name: 
      Entry: 8
      Data: 
    - Name: 
      Entry: 13
      Data: 
    - Name: 
      Entry: 8
      Data: 
    - Name: seed
      Entry: 7
      Data: 1|System.Collections.Generic.Dictionary`2[[System.String, mscorlib],[UnityEngine.Vector2,
        UnityEngine.CoreModule]], mscorlib
    - Name: comparer
      Entry: 7
      Data: 2|System.Collections.Generic.GenericEqualityComparer`1[[System.String,
        mscorlib]], mscorlib
    - Name: 
      Entry: 8
      Data: 
    - Name: 
      Entry: 12
      Data: 3
    - Name: 
      Entry: 7
      Data: 
    - Name: 
      Entry: 1
      Data: Normal
    - Name: 
      Entry: 7
      Data: UnityEngine.Vector2, UnityEngine.CoreModule
    - Name: 
      Entry: 4
      Data: 0
    - Name: 
      Entry: 4
      Data: 25
    - Name: 
      Entry: 8
      Data: 
    - Name: 
      Entry: 8
      Data: 
    - Name: 
      Entry: 7
      Data: 
    - Name: 
      Entry: 1
      Data: Rare
    - Name: 
      Entry: 7
      Data: UnityEngine.Vector2, UnityEngine.CoreModule
    - Name: 
      Entry: 4
      Data: 25
    - Name: 
      Entry: 4
      Data: 125
    - Name: 
      Entry: 8
      Data: 
    - Name: 
      Entry: 8
      Data: 
    - Name: 
      Entry: 7
      Data: 
    - Name: 
      Entry: 1
      Data: Excellent
    - Name: 
      Entry: 7
      Data: UnityEngine.Vector2, UnityEngine.CoreModule
    - Name: 
      Entry: 4
      Data: 125
    - Name: 
      Entry: 4
      Data: 125
    - Name: 
      Entry: 8
      Data: 
    - Name: 
      Entry: 8
      Data: 
    - Name: 
      Entry: 13
      Data: 
    - Name: 
      Entry: 8
      Data: 
  type: 1
  maxSeedRange: 125
